/* XPM */
static char * common_xpm[] = {
"30 30 4 1",
" 	c None",
".	c #00FF00",
"+	c #FF0000",
"@	c #000000",
"                              ",
"            .                 ",
"            ..   +            ",
"             .. ++            ",
"        ..    ..+             ",
"         .    +..   ++        ",
"          .  ++ .  ++         ",
"     .    .. +  ..++    +     ",
"     ..    .++   .+    ++     ",
"      .    ..    ..   ++      ",
"@@.@@@@.@@@+.@@@@+.@@@+@@@@+@@",
"@@..@@@.@@@+.@@@@+.@@++@@@@+@@",
"@@@.@@@..@@+..@@+@.@@+@@@@+@@@",
"@@@.@@@@.@@+@.@@+@.@@+@@@@+@@@",
"@@@.@@@@.@@+@.@@+@.@@+@@@@+@@@",
"@@@.@@@@.@@@+.@@@+.@@@+@@@@+@@",
"@@@.@@@@.@@@+.@@@+.@@@++@@@+@@",
"@@.@@@@..@@@.@@@@@.@@@@+@@@+@@",
"@@.@@@@.@@@@.@@@@@.@@@@+@@@@@@",
"      ..   ..+   ..+    +     ",
"     ..    . +  .. +    ++    ",
"     .    .. ++ .  ++    +    ",
"         ..   +..   +         ",
"        ..    ..     +        ",
"             ..++    ++       ",
"            ..  ++            ",
"            .    ++           ",
"                              ",
"                              ",
"                              "};
