/* XPM */
static char * face_50_xpm[] = {
"50 54 342 2",
"  	c None",
". 	c #9899A7",
"+ 	c #9C9DAC",
"@ 	c #9B9CAB",
"# 	c #9899A6",
"$ 	c #9897A2",
"% 	c #9D9CA5",
"& 	c #A1A1AD",
"* 	c #9D9EAD",
"= 	c #9696A1",
"- 	c #A5A3A7",
"; 	c #B7B4B7",
"> 	c #B6B3B6",
", 	c #B4B1B4",
"' 	c #B5B2B5",
") 	c #B1B0B8",
"! 	c #9FA0AE",
"~ 	c #9898A4",
"{ 	c #B0AEB2",
"] 	c #C5C2C5",
"^ 	c #B7B5B7",
"/ 	c #C1C0C1",
"( 	c #C2C0C2",
"_ 	c #C7C4C7",
": 	c #C1BEC1",
"< 	c #BAB7BA",
"[ 	c #C4C2C4",
"} 	c #B6B5BD",
"| 	c #B5B4B5",
"1 	c #EDEDED",
"2 	c #EFEFEF",
"3 	c #E1E0E1",
"4 	c #C8C6C8",
"5 	c #BDBBBD",
"6 	c #C4C3C4",
"7 	c #EEEEEE",
"8 	c #DBD9DB",
"9 	c #C6C3C6",
"0 	c #BAB9BA",
"a 	c #FCFCFC",
"b 	c #FFFFFF",
"c 	c #FEFEFE",
"d 	c #ECECEC",
"e 	c #BEBBBE",
"f 	c #CCCBCC",
"g 	c #E2E1E2",
"h 	c #C0BFC0",
"i 	c #E6E6E6",
"j 	c #E8E7E8",
"k 	c #DDDCDD",
"l 	c #C8C5C8",
"m 	c #CBC9CB",
"n 	c #E7E6E7",
"o 	c #D8D6D8",
"p 	c #C3C0C3",
"q 	c #C2BFC2",
"r 	c #C4C1C4",
"s 	c #BDBABE",
"t 	c #B7B5B9",
"u 	c #ADACB1",
"v 	c #AAA8AD",
"w 	c #ACA9AF",
"x 	c #B5B2B7",
"y 	c #BCB9BC",
"z 	c #C2C0C3",
"A 	c #BBB9BC",
"B 	c #B6B4B8",
"C 	c #ABA9AF",
"D 	c #AAA7AD",
"E 	c #AEABB1",
"F 	c #B6B4B9",
"G 	c #BCBABD",
"H 	c #B3B1B6",
"I 	c #A9A8B0",
"J 	c #A0A1AC",
"K 	c #A4A5B1",
"L 	c #A7A8B5",
"M 	c #A5A6B3",
"N 	c #A0A0AC",
"O 	c #A5A5AE",
"P 	c #B1AFB5",
"Q 	c #B2B0B5",
"R 	c #A6A6AF",
"S 	c #A0A0AB",
"T 	c #A8A7B0",
"U 	c #B4B1B6",
"V 	c #C0BDC0",
"W 	c #B1AFB4",
"X 	c #A4A4AF",
"Y 	c #9F9FAE",
"Z 	c #9E9FAD",
"` 	c #A3A3AF",
" .	c #A7A6AE",
"..	c #B8B5B8",
"+.	c #BDBABD",
"@.	c #AEADB3",
"#.	c #A2A2AE",
"$.	c #9E9EAD",
"%.	c #A8A7AB",
"&.	c #999AA7",
"*.	c #9A999F",
"=.	c #B9B7BA",
"-.	c #C1BFC2",
";.	c #ADACB2",
">.	c #A0A0AD",
",.	c #9596A4",
"'.	c #7C7D87",
").	c #82848E",
"!.	c #9A9BAA",
"~.	c #9696A2",
"{.	c #9E9DA1",
"].	c #A5A5AD",
"^.	c #94949E",
"/.	c #A7A5A9",
"(.	c #B8B6B9",
"_.	c #A2A2AD",
":.	c #9D9EAC",
"<.	c #898A95",
"[.	c #5D6061",
"}.	c #65666A",
"|.	c #9798A6",
"1.	c #93939B",
"2.	c #B0ADB0",
"3.	c #A1A2AE",
"4.	c #9697A4",
"5.	c #99989E",
"6.	c #BFBCBF",
"7.	c #AEACB1",
"8.	c #9F9FAD",
"9.	c #9495A3",
"0.	c #7A7B84",
"a.	c #80828C",
"b.	c #9596A2",
"c.	c #9F9EA2",
"d.	c #AAA7AC",
"e.	c #999AA8",
"f.	c #95959C",
"g.	c #B7B5B8",
"h.	c #A7A6AD",
"i.	c #999AA9",
"j.	c #99999E",
"k.	c #A8A6AB",
"l.	c #8B8C99",
"m.	c #8A8B97",
"n.	c #95949D",
"o.	c #B3B1B3",
"p.	c #A5A4AC",
"q.	c #9A9BA9",
"r.	c #97979D",
"s.	c #B9B6B9",
"t.	c #595B5C",
"u.	c #5E6062",
"v.	c #8E8F9B",
"w.	c #9A979A",
"x.	c #989698",
"y.	c #B6B4B6",
"z.	c #A8A6AD",
"A.	c #9A999E",
"B.	c #BCBABC",
"C.	c #AFADB1",
"D.	c #74767D",
"E.	c #75767E",
"F.	c #BFBDC0",
"G.	c #A8A6A8",
"H.	c #808080",
"I.	c #848484",
"J.	c #B0AFB0",
"K.	c #AEACB2",
"L.	c #9696A3",
"M.	c #A09EA2",
"N.	c #BEBCBF",
"O.	c #9899A8",
"P.	c #94959F",
"Q.	c #AFADAF",
"R.	c #9B9A9B",
"S.	c #9F9E9F",
"T.	c #B8B5B9",
"U.	c #93949C",
"V.	c #A1A1AC",
"W.	c #9C9DAB",
"X.	c #9B9BA0",
"Y.	c #A6A6A6",
"Z.	c #A7A7A7",
"`.	c #B8B7B8",
" +	c #9F9FAB",
".+	c #9495A0",
"++	c #C0BEC1",
"@+	c #A8A7AC",
"#+	c #93949F",
"$+	c #96959C",
"%+	c #B4B2B4",
"&+	c #B1B0B1",
"*+	c #BBB9BB",
"=+	c #A09FA6",
"-+	c #93949E",
";+	c #A3A2A5",
">+	c #929298",
",+	c #94949F",
"'+	c #909098",
")+	c #B1AFB1",
"!+	c #BAB8BB",
"~+	c #A09EA3",
"{+	c #9797A4",
"]+	c #908F97",
"^+	c #A7A5A8",
"/+	c #9D9CA0",
"(+	c #9C9A9F",
"_+	c #9C9BA0",
":+	c #A3A1A5",
"<+	c #B3B1B4",
"[+	c #AEACAE",
"}+	c #B1AEB1",
"|+	c #BAB8BA",
"1+	c #A4A3A6",
"2+	c #9B9A9F",
"3+	c #B4B2B5",
"4+	c #B2B0B2",
"5+	c #AFACAF",
"6+	c #ACAAAC",
"7+	c #B3B0B3",
"8+	c #A2A1A2",
"9+	c #A3A3A3",
"0+	c #B7B6B7",
"a+	c #ADAAAD",
"b+	c #959395",
"c+	c #9A999A",
"d+	c #949394",
"e+	c #989798",
"f+	c #C1BFC1",
"g+	c #9E9EAA",
"h+	c #B3B2B7",
"i+	c #BFBEC2",
"j+	c #B2B2BB",
"k+	c #9E9FAE",
"l+	c #9697A5",
"m+	c #8A8B98",
"n+	c #9192A0",
"o+	c #9B9CAA",
"p+	c #676771",
"q+	c #82838F",
"r+	c #8F909D",
"s+	c #757680",
"t+	c #585960",
"u+	c #5F5F63",
"v+	c #646468",
"w+	c #5A5A62",
"x+	c #8C8D9B",
"y+	c #9394A3",
"z+	c #505057",
"A+	c #36373B",
"B+	c #848592",
"C+	c #82838E",
"D+	c #606067",
"E+	c #48484B",
"F+	c #6C6C6D",
"G+	c #8B8B8C",
"H+	c #C2C2C2",
"I+	c #B0B0B0",
"J+	c #5E5E60",
"K+	c #7B7C88",
"L+	c #47484E",
"M+	c #28282C",
"N+	c #5E5F67",
"O+	c #878894",
"P+	c #686971",
"Q+	c #4D4D50",
"R+	c #5F5F60",
"S+	c #989898",
"T+	c #BBBBBB",
"U+	c #E1E1E1",
"V+	c #CBCBCB",
"W+	c #D5D5D5",
"X+	c #CECECE",
"Y+	c #616163",
"Z+	c #7E7F8B",
"`+	c #8F909E",
" @	c #5F5F68",
".@	c #2B2B2F",
"+@	c #38383D",
"@@	c #656670",
"#@	c #82838D",
"$@	c #5D5E63",
"%@	c #4A4B4D",
"&@	c #7E7E7E",
"*@	c #D3D3D3",
"=@	c #DFDFDF",
"-@	c #C8C8C8",
";@	c #DDDDDD",
">@	c #E3E3E3",
",@	c #BFBFBF",
"'@	c #787879",
")@	c #535359",
"!@	c #91929F",
"~@	c #8B8B99",
"{@	c #505158",
"]@	c #222224",
"^@	c #1F1F21",
"/@	c #434348",
"(@	c #6A6B73",
"_@	c #6A6B71",
":@	c #5B5B5E",
"<@	c #555556",
"[@	c #878787",
"}@	c #D8D8D8",
"|@	c #D0D0D0",
"1@	c #EAEAEA",
"2@	c #E2E2E2",
"3@	c #A9A9A9",
"4@	c #565658",
"5@	c #53545A",
"6@	c #9798A7",
"7@	c #767782",
"8@	c #48494F",
"9@	c #28282A",
"0@	c #333334",
"a@	c #515151",
"b@	c #616160",
"c@	c #7A7A7A",
"d@	c #B4B4B4",
"e@	c #B7B7B7",
"f@	c #B5B5B6",
"g@	c #B3B3B3",
"h@	c #9D9D9D",
"i@	c #99999A",
"j@	c #858687",
"k@	c #797A85",
"l@	c #9394A2",
"m@	c #7F808C",
"n@	c #6B6B74",
"o@	c #67686E",
"p@	c #636368",
"q@	c #59595E",
"r@	c #5C5D61",
"s@	c #5C5C61",
"t@	c #5F5F64",
"u@	c #67676C",
"v@	c #6B6C72",
"w@	c #6D6E74",
"x@	c #707179",
"y@	c #767781",
"z@	c #81828E",
"A@	c #9293A1",
". + + + + + + + + + + + + + + + + + + + + + + + + + + + + + + + + + + + + + + + + + + + + + + + + + ",
". + + @ @ @ @ @ @ @ @ @ @ @ @ @ @ @ @ @ @ @ @ @ @ @ @ @ @ @ @ @ @ @ @ @ @ @ @ @ @ @ @ @ @ @ @ + + + ",
". + # $ % % % % % % % % % % % % % % % % % % % % % % % % % % % % % % % % % % % % % % % % % % % & * + ",
". + = - ; ; ; > , , , , , , , , , ' ; ; ; ; ; ; ; ; ; ; ; ' , , , , , , , , , > ; ; ; ; ; ; ; ) ! + ",
". + ~ { ] ] ] ^ / ( ( ( ( ( ( ( ( ( _ ] ] ] ] ] ] ] ] ] : < ( ( ( ( ( ( ( ( ( [ ] ] ] ] ] ] ] } ! + ",
". + ~ { ] ] ] | 1 2 2 2 2 2 2 2 2 3 4 ] ] ] ] ] ] ] ] ] 5 6 2 2 2 2 2 2 2 2 7 8 9 ] ] ] ] ] ] } ! + ",
". + ~ { ] ] ] 0 a b b b b b b b c d 4 ] ] ] ] ] ] ] ] ] e f b b b b b b b b c g 9 ] ] ] ] ] ] } ! + ",
". + ~ { ] ] ] h i j j j j j j j j k l ] ] ] ] ] ] ] ] ] : m j j j j j j j j n o 9 ] ] ] ] ] ] } ! + ",
". + ~ { ] ] ] ] _ _ _ _ _ _ _ _ _ 9 ] ] ] ] ] ] ] ] ] ] ] ] _ _ _ _ _ _ _ _ _ 9 ] ] ] ] ] ] ] } ! + ",
". + ~ { ] ] ] ] ] ] ] ] ] p q p r ] ] ] ] ] ] ] ] ] ] ] ] ] ] ] ] ] ] p q p ] ] ] ] ] ] ] ] ] } ! + ",
". + ~ { ] ] ] ] ] ] p s t u v w x y : ] ] ] ] ] ] ] ] ] ] ] ] ] z A B C D E F G p ] ] ] ] ] ] } ! + ",
". + ~ { ] ] ] ] ] : H I J K L M N O P s r ] ] ] ] ] ] ] ] ] r e Q R S M L K N T U V ] ] ] ] ] } ! + ",
". + ~ { ] ] ] ] : W X Y + + + + + Z `  ...r ] ] ] ] ] ] ] ] +.@.#.Z + + + + @ $.X %.e ] ] ] ] } ! + ",
". + ~ { ] ] ] p Q #.+ + + + + + + + + &.*.=.] ] ] ] ] ] ] -.;.>.+ + + + + ,.'.).!.~.{.q ] ] ] } ! + ",
". + ~ { ] ] ] e ].* + + + + + + + + + + ^./.p ] ] ] ] ] r (._.:.+ + + + + <.[.}.|.@ 1.2.] ] ] } ! + ",
". + ~ { ] ] ] { 3.+ + + + + + + + + + + 4.5.6.] ] ] ] ] V 7.8.+ + + + + + 9.0.a.!.+ b.c.p ] ] } ! + ",
". + ~ { ] ] ] d.* + + + + + + + + + + + e.f.g.] ] ] ] ] e h.* + + + + + + + i.!.+ + &.j.y ] ] } ! + ",
". + ~ { ] ] ] k.+ @ l.m.!.+ + + + + + + !.n.o.] ] ] ] ] e p.+ + + + + + + + + + + + q.r.s.] ] } ! + ",
". + ~ { ] ] ] D :.9.t.u.v.+ + + + + + + &.f...; w.x.y.] e z.* + + + + + + + + + + + &.A.B.] ] } ! + ",
". + ~ { ] ] ] C.#.. D.E.,.+ + + + + + + 4.5.F.G.H.I.J.9 V K.8.+ + + + + + + + + + + L.M.p ] ] } ! + ",
". + ~ { ] ] ] N.p.* e.O.+ + + + + + + + P./.p Q.R.S.^ 9 r T._.:.+ + + + + + + + + @ U.Q.] ] ] } ! + ",
". + ~ { ] ] ] p H V.W.+ + + + + + + @ 4.X.A ] , Y.Z.`.9 ] q K. +W.+ + + + + + + @ .+M.p ] ] ] } ! + ",
". + ~ { ] ] ] ] ++@+#+!.+ + + + + W.b.$+' r ] %+Q.&+*+9 ] ] A =+b.+ + + + + + W.-+A.A ] ] ] ] } ! + ",
". + ~ { ] ] ] ] ] V ;+>+,+4.4.4.~.'+c...] ] ] ' )+%+*+9 ] ] ] !+~+'+= 4.4.{+P.]+^+5 ] ] ] ] ] } ! + ",
". + ~ { ] ] ] ] ] ] : ; /./+(+_+:+<+6.] ] ] ] %+[+}+|+9 ] ] ] ] 6.<+1+_+2+/+/.3+q ] ] ] ] ] ] } ! + ",
". + ~ { ] ] ] ] ] ] ] ] p : : : q r ] ] ] ] ] %+Q.4+*+9 ] ] ] ] ] r q : : : p r ] ] ] ] ] ] ] } ! + ",
". + ~ { ] ] ] ] ] ] ] ] ] ] ] ] ] ] ] ] ] ] ] ' 5+)+0 9 ] ] ] ] ] ] ] ] ] ] ] ] ] ] ] ] ] ] ] } ! + ",
". + ~ { ] ] ] ] ] ] ] ] ] ] ] ] ] ] ] ] ] ] ] %+6+[+|+9 ] ] ] ] ] ] ] ] ] ] ] ] ] ] ] ] ] ] ] } ! + ",
". + ~ { ] ] ] ] ] ] ] ] ] ] ] ] ] ] ] ] ] ] ] 7+8+9+0+9 ] ] ] ] ] ] ] ] ] ] ] ] ] ] ] ] ] ] ] } ! + ",
". + ~ { ] ] ] ] ] ] ] ] ] ] ] ] ] ] ] ] ] ] ] a+b+c+y.9 ] ] ] ] ] ] ] ] ] ] ] ] ] ] ] ] ] ] ] } ! + ",
". + ~ { ] ] ] ] ] ] ] ] ] ] ] ] ] ] ] ] ] ] ] Q.d+e+^ 9 ] ] ] ] ] ] ] ] ] ] ] ] ] ] ] ] ] ] ] } ! + ",
". + ~ { ] ] ] ] ] ] ] ] ] ] ] ] ] ] ] ] ] ] ] q V f+] ] ] ] ] ] ] ] ] ] ] ] ] ] ] ] ] ] ] ] ] } ! + ",
". + ~ { ] ] ] ] ] ] ] ] ] ] ] ] ] ] ] ] ] ] ] ] ] ] ] ] ] ] ] ] ] ] ] ] ] ] ] ] ] ] ] ] ] ] ] } ! + ",
". + ~ { ] ] ] ] ] ] ] ] ] ] ] ] ] ] ] ] ] ] ] ] ] ] ] ] ] ] ] ] ] ] ] ] ] ] ] ] ] ] ] ] ] ] ] } ! + ",
". + ~ { ] ] ] ] ] ] ] ] ] ] ] ] ] ] ] ] ] ] ] ] ] ] ] ] ] ] ] ] ] ] ] ] ] ] ] ] ] ] ] ] ] ] ] } ! + ",
". + g+h+i+i+i+i+i+i+i+i+i+i+i+i+i+i+i+i+i+i+i+i+i+i+i+i+i+i+i+i+i+i+i+i+i+i+i+i+i+i+i+i+i+i+i+j+k++ ",
". + + + + + + + + + + + + + + + + + + + + + + + + + + + + + + + + + + + + + + + + + + + + + + + + + ",
". + + + + + + + + + + + + + + + + + + + + + + + + + + + + + + + + + + + + + + + + + + + + + + + + + ",
". + + + + + + + + + + + + + + + + + + + + + + + + + + + + + + + + + + + + + + + + + + + + + + + + + ",
". + + + + + + + + + + + + + + + + + + + + + + + + + + + + + + + + + + + + + + + + + + + + + + + + + ",
". + + + + + + + + + + + + + + + + + + + + + + + + + + + + + + + + + + + + + + + + + + + + + + + + + ",
". + + + + + + + + + + + @ . @ + + + + + + + + + + + + + + + + + + + l+l.m+n+o++ + + + + + + + + + + ",
". + + + + + + + + + + + n+p+q++ + + + + + + + + + + + + + + + + r+s+t+u+v+w+x++ + + + + + + + + + + ",
". + + + + + + + + + + + y+z+A+B+q.+ + + + + + + + + + + o+l+C+D+E+F+G+H+I+J+K++ + + + + + + + + + + ",
". + + + + + + + + + + + + m+L+M+N+r+@ + + + + + + W.e.O+P+Q+R+S+T+U+V+W+X+Y+Z++ + + + + + + + + + + ",
". + + + + + + + + + + + + + `+ @.@+@@@m+|.q.!.q.l+#@$@%@&@Y.*@=@-@;@>@,@'@)@!@+ + + + + + + + + + + ",
". + + + + + + + + + + + + + + !.~@{@]@^@/@D+(@_@:@<@[@T+}@*@|@1@2@H+3@4@5@m+W.+ + + + + + + + + + + ",
". + + + + + + + + + + + + + + + + 6@7@8@9@0@a@b@c@d@e@Y.f@g@h@i@j@:@5@k@4.+ + + + + + + + + + + + + ",
". + + + + + + + + + + + + + + + + + @ l@m@n@o@p@q@r@s@t@u@v@w@x@y@z@A@+ + + + + + + + + + + + + + + ",
". + + + + + + + + + + + + + + + + + + + + + + + + @ @ @ + + + + + + + + + + + + + + + + + + + + + + ",
". + + + + + + + + + + + + + + + + + + + + + + + + + + + + + + + + + + + + + + + + + + + + + + + + + ",
". + + + + + + + + + + + + + + + + + + + + + + + + + + + + + + + + + + + + + + + + + + + + + + + + + ",
". + + + + + + + + + + + + + + + + + + + + + + + + + + + + + + + + + + + + + + + + + + + + + + + + + ",
". + + + + + + + + + + + + + + + + + + + + + + + + + + + + + + + + + + + + + + + + + + + + + + + + + "};
