/* XPM */
static char * mixer_xpm[] = {
"30 30 4 1",
" 	c None",
".	c #000000",
"+	c #FFFFFF",
"@	c #0033FF",
"                              ",
"                              ",
"                              ",
"                              ",
"                              ",
"                              ",
"       .    .    .    .       ",
"       .    .    .    .       ",
"       .    .    .    .       ",
"     .++@  ...  ...  ...      ",
"      +@@   .    .    .       ",
"      @@@   .    .    .       ",
"       .   ++@   .    .       ",
"       .   +@@   .    .       ",
"     ....  @@@  ...  ++@      ",
"       .    .   ++@  +@@      ",
"       .    .   +@@  @@@      ",
"       .    .   @@@   .       ",
"       .    .    .    .       ",
"     ....  ...  ...  ...      ",
"       .    .    .    .       ",
"       .    .    .    .       ",
"       .    .    .    .       ",
"       .    .    .    .       ",
"                              ",
"                              ",
"                              ",
"                              ",
"                              ",
"                              "};
