/* XPM */
static char * new_xpm[] = {
"11 13 3 1",
" 	c None",
".	c #000000",
"+	c #FFFFFF",
"........   ",
".++++++..  ",
".++++++.+. ",
".++++++....",
".+++++++++.",
".+++++++++.",
".+++++++++.",
".+++++++++.",
".+++++++++.",
".+++++++++.",
".+++++++++.",
".+++++++++.",
"..........."};
