/* XPM */
static char * pause_xpm[] = {
"9 9 4 1",
" 	c None",
".	c #7F7F7F",
"+	c #FFFFFF",
"@	c #00FF00",
"...+ ...+",
".@@+ .@@+",
".@@+ .@@+",
".@@+ .@@+",
".@@+ .@@+",
".@@+ .@@+",
".@@+ .@@+",
".@@+ .@@+",
".+++ .+++"};
