/* XPM */
static char * undo_xpm[] = {
"12 7 3 1",
" 	c None",
".	c #000083",
"+	c #838183",
"      ....+ ",
".   ..    .+",
".. .       .",
"...        .",
"....       .",
".....     .+",
"         +. "};
