/* XPM */
static char * vertical_96x256_xpm[] = {
"96 256 678 2",
"  	c None",
". 	c #B7B8CA",
"+ 	c #B7B8CB",
"@ 	c #B3B4C6",
"# 	c #B0B1C2",
"$ 	c #B1B2C3",
"% 	c #A9AABB",
"& 	c #A2A3B3",
"* 	c #A3A4B4",
"= 	c #9697A6",
"- 	c #B5B6C8",
"; 	c #AFB0C1",
"> 	c #ADAEBF",
", 	c #A5A6B6",
"' 	c #A4A5B5",
") 	c #B3B4C5",
"! 	c #A9AABA",
"~ 	c #9C9DAC",
"{ 	c #ACADBE",
"] 	c #9FA0B0",
"^ 	c #9596A5",
"/ 	c #9899A8",
"( 	c #A8A9B9",
"_ 	c #9B9CAB",
": 	c #ACADBD",
"< 	c #9FA0AF",
"[ 	c #9798A7",
"} 	c #A7A8B9",
"| 	c #9A9BAB",
"1 	c #ABACBD",
"2 	c #9E9FAF",
"3 	c #AFB0C0",
"4 	c #A2A3B2",
"5 	c #E5E5EB",
"6 	c #DCDCE4",
"7 	c #C1C2CF",
"8 	c #A7A8B8",
"9 	c #A3A4B3",
"0 	c #ADAEBC",
"a 	c #D6D6DD",
"b 	c #FFFFFF",
"c 	c #B7B8C4",
"d 	c #E0E1E6",
"e 	c #CCCCD5",
"f 	c #B8B9C5",
"g 	c #9A9BAA",
"h 	c #C5C5CD",
"i 	c #DCDCE1",
"j 	c #ADAEBA",
"k 	c #CBCCD7",
"l 	c #ABACBC",
"m 	c #EAEBEE",
"n 	c #F5F5F6",
"o 	c #C2C2CD",
"p 	c #BEBFC9",
"q 	c #B9BAC4",
"r 	c #B9BAC9",
"s 	c #CACBD6",
"t 	c #ACADBB",
"u 	c #B8B9C3",
"v 	c #A2A2B0",
"w 	c #F6F6F8",
"x 	c #EDEEF1",
"y 	c #F3F3F5",
"z 	c #D0D1D7",
"A 	c #D3D4DD",
"B 	c #BABACA",
"C 	c #F5F5F7",
"D 	c #D4D4DE",
"E 	c #A8A9B6",
"F 	c #A1A2B1",
"G 	c #A6A7B7",
"H 	c #999AA9",
"I 	c #E8E8EB",
"J 	c #A7A8B6",
"K 	c #B0B1C3",
"L 	c #A3A4B5",
"M 	c #9697A5",
"N 	c #9E9FAE",
"O 	c #AEAFC0",
"P 	c #A1A2B2",
"Q 	c #A6A7B8",
"R 	c #999AAA",
"S 	c #AAABBC",
"T 	c #9D9EAE",
"U 	c #90919F",
"V 	c #9495A3",
"W 	c #878895",
"X 	c #888996",
"Y 	c #8B8C99",
"Z 	c #9C9DAD",
"` 	c #8F909E",
" .	c #A0A1B1",
"..	c #9394A3",
"+.	c #8A8B99",
"@.	c #8E8F9D",
"#.	c #A0A1B0",
"$.	c #9697A7",
"%.	c #9293A2",
"&.	c #8A8B98",
"*.	c #9B9CAC",
"=.	c #8E8F9C",
"-.	c #9293A1",
";.	c #898A98",
">.	c #8D8E9C",
",.	c #9192A0",
"'.	c #9596A4",
").	c #898A97",
"!.	c #8C8D9B",
"~.	c #9091A0",
"{.	c #9495A4",
"].	c #8C8D9A",
"^.	c #888995",
"/.	c #9D9EAD",
"(.	c #9192A1",
"_.	c #8B8C9A",
":.	c #9899A9",
"<.	c #8F909D",
"[.	c #9394A2",
"}.	c #8D8E9B",
"|.	c #858693",
"1.	c #767782",
"2.	c #7A7B87",
"3.	c #757681",
"4.	c #7F808C",
"5.	c #858692",
"6.	c #797A86",
"7.	c #848591",
"8.	c #797A85",
"9.	c #7E7F8B",
"0.	c #838490",
"a.	c #787984",
"b.	c #7D7E8A",
"c.	c #828390",
"d.	c #878894",
"e.	c #777884",
"f.	c #81828F",
"g.	c #868794",
"h.	c #777883",
"i.	c #7B7C88",
"j.	c #767783",
"k.	c #8F909F",
"l.	c #80818D",
"m.	c #7A7B86",
"n.	c #888997",
"o.	c #838491",
"p.	c #7C7D89",
"q.	c #82838F",
"r.	c #81828E",
"s.	c #868793",
"t.	c #7B7C87",
"u.	c #848592",
"v.	c #767781",
"w.	c #787985",
"x.	c #9899A5",
"y.	c #9A9CAA",
"z.	c #9A9BA9",
"A.	c #9799A6",
"B.	c #9798A6",
"C.	c #9797A6",
"D.	c #9898A6",
"E.	c #9B9CAA",
"F.	c #999BA9",
"G.	c #8A898E",
"H.	c #9D9A9D",
"I.	c #A7A3A7",
"J.	c #A29FA4",
"K.	c #A3A0A4",
"L.	c #A3A1A4",
"M.	c #A39FA4",
"N.	c #A2A0A3",
"O.	c #A19FA2",
"P.	c #A6A4A7",
"Q.	c #ABAAB3",
"R.	c #9E9EAE",
"S.	c #9C9DAE",
"T.	c #989AA8",
"U.	c #98979C",
"V.	c #BBB8BA",
"W.	c #C8C5C7",
"X.	c #C3C0C3",
"Y.	c #BFBCBE",
"Z.	c #BBB7BA",
"`.	c #BAB7BA",
" +	c #BDBABD",
".+	c #C5C2C4",
"++	c #C3C0C2",
"@+	c #BAB8BA",
"#+	c #C0BDC0",
"$+	c #C5C1C3",
"%+	c #B4B3BC",
"&+	c #9C9EAD",
"*+	c #9C9EAE",
"=+	c #989AA9",
"-+	c #9B9A9E",
";+	c #CBC8CC",
">+	c #CAC7CA",
",+	c #BDBBBD",
"'+	c #ABABAC",
")+	c #D2D1D2",
"!+	c #CECDCE",
"~+	c #CECECE",
"{+	c #CDCDCD",
"]+	c #CBCACB",
"^+	c #CBC9CB",
"/+	c #C6C3C6",
"(+	c #C7C4C7",
"_+	c #BFBCBF",
":+	c #CBCBCB",
"<+	c #CCCACC",
"[+	c #C7C4C8",
"}+	c #C9C6C8",
"|+	c #C6C3C7",
"1+	c #686973",
"2+	c #989BA9",
"3+	c #99989D",
"4+	c #BDBABC",
"5+	c #C9C6C9",
"6+	c #B9B6B9",
"7+	c #B0AFB0",
"8+	c #FAFAFA",
"9+	c #F6F6F6",
"0+	c #F6F7F6",
"a+	c #E8E8E8",
"b+	c #C4C2C4",
"c+	c #C4C1C4",
"d+	c #C5C2C5",
"e+	c #C2BFC2",
"f+	c #BCB9BC",
"g+	c #CCCBCC",
"h+	c #F4F4F4",
"i+	c #F7F7F7",
"j+	c #DEDDDE",
"k+	c #C4C1C5",
"l+	c #6E6F79",
"m+	c #61626A",
"n+	c #C8C5C8",
"o+	c #B7B6B7",
"p+	c #FDFDFD",
"q+	c #EFEFEF",
"r+	c #C2C0C2",
"s+	c #FDFEFD",
"t+	c #FEFEFE",
"u+	c #FBFBFB",
"v+	c #E2E1E2",
"w+	c #C7C4C6",
"x+	c #C4C2C5",
"y+	c #73747F",
"z+	c #61626B",
"A+	c #62636C",
"B+	c #C7C3C7",
"C+	c #BFBEBF",
"D+	c #E5E4E5",
"E+	c #E4E4E4",
"F+	c #E5E5E5",
"G+	c #DBDADB",
"H+	c #C1BFC1",
"I+	c #E3E3E3",
"J+	c #D6D5D6",
"K+	c #63646D",
"L+	c #C8C6C8",
"M+	c #C9C7C9",
"N+	c #CAC8CA",
"O+	c #C7C5C8",
"P+	c #C5C1C5",
"Q+	c #676872",
"R+	c #C6C2C6",
"S+	c #C3BFC3",
"T+	c #C2BEC1",
"U+	c #C1BEC1",
"V+	c #C2BEC2",
"W+	c #6D6E78",
"X+	c #B8B5B8",
"Y+	c #AEABAF",
"Z+	c #AAA7AB",
"`+	c #B2AFB3",
" @	c #C4C1C3",
".@	c #C6C3C5",
"+@	c #C2C0C3",
"@@	c #B8B5B9",
"#@	c #ADAAAE",
"$@	c #ABA9AC",
"%@	c #B3B0B4",
"&@	c #BFBCC0",
"*@	c #73747E",
"=@	c #BCBABC",
"-@	c #B5B2B7",
";@	c #A9A8AF",
">@	c #A5A5AE",
",@	c #A7A7B0",
"'@	c #A8A7B2",
")@	c #A6A5B0",
"!@	c #A6A5AE",
"~@	c #AEACB2",
"{@	c #B9B7BA",
"]@	c #C2BFC1",
"^@	c #C5C1C4",
"/@	c #BEBBBE",
"(@	c #B3B2B6",
"_@	c #A7A7B1",
":@	c #A7A7B2",
"<@	c #A6A5AF",
"[@	c #B0AEB3",
"}@	c #B8B6B9",
"|@	c #B9B8BA",
"1@	c #AFAEB4",
"2@	c #A1A1AD",
"3@	c #9D9EAC",
"4@	c #A2A2B1",
"5@	c #9F9FAE",
"6@	c #9E9FAC",
"7@	c #A6A6B0",
"8@	c #B5B2B6",
"9@	c #AAAAB1",
"0@	c #A1A2AE",
"a@	c #9EA0AE",
"b@	c #9B9DAB",
"c@	c #B4B3B6",
"d@	c #A8A7AE",
"e@	c #9E9EAD",
"f@	c #9A9AA4",
"g@	c #9B999D",
"h@	c #BCB8BB",
"i@	c #A8A7AF",
"j@	c #9B9DAC",
"k@	c #9A9CAB",
"l@	c #9D9EAF",
"m@	c #94949E",
"n@	c #AAA8AA",
"o@	c #C4C0C3",
"p@	c #ABA9AE",
"q@	c #8F8F98",
"r@	c #A8A5A7",
"s@	c #ADABB1",
"t@	c #9F9FAD",
"u@	c #8B8C98",
"v@	c #6A6B70",
"w@	c #6F7076",
"x@	c #86878D",
"y@	c #B1AFB1",
"z@	c #B9B7BB",
"A@	c #A1A1A9",
"B@	c #9A9AA0",
"C@	c #B9B7B9",
"D@	c #B6B4B7",
"E@	c #A0A0AA",
"F@	c #9D9DAD",
"G@	c #83848F",
"H@	c #525453",
"I@	c #57595B",
"J@	c #8C8C8E",
"K@	c #B9B7B8",
"L@	c #CCC9CC",
"M@	c #C1BDBF",
"N@	c #A2A3B0",
"O@	c #96969E",
"P@	c #B3B2B5",
"Q@	c #AFADB3",
"R@	c #838590",
"S@	c #888A95",
"T@	c #83858B",
"U@	c #B0AFB1",
"V@	c #A3A2A7",
"W@	c #91939B",
"X@	c #AEACAF",
"Y@	c #BEBBBF",
"Z@	c #A9A8B0",
"`@	c #92929D",
" #	c #A8A6AA",
".#	c #C1BEC0",
"+#	c #BEBCBE",
"@#	c #A2A1A7",
"##	c #9B9DAD",
"$#	c #9595A4",
"%#	c #80818C",
"&#	c #8F919B",
"*#	c #ABAAAD",
"=#	c #BFBBBF",
"-#	c #A7A6AF",
";#	c #9798A3",
">#	c #A5A3A6",
",#	c #BEBBBC",
"'#	c #CAC7C9",
")#	c #C0BCBF",
"!#	c #A5A2A8",
"~#	c #5E6064",
"{#	c #565959",
"]#	c #81828C",
"^#	c #91919B",
"/#	c #AEADB0",
"(#	c #ABA9AB",
"_#	c #979597",
":#	c #A09DA0",
"<#	c #93939D",
"[#	c #A7A6A9",
"}#	c #C0BEC0",
"|#	c #BFBBBE",
"1#	c #A7A4A8",
"2#	c #A4A5B4",
"3#	c #6E7077",
"4#	c #5C5F61",
"5#	c #878993",
"6#	c #95959E",
"7#	c #B4B2B5",
"8#	c #949394",
"9#	c #7C7C7C",
"0#	c #8E8D8E",
"a#	c #B2B0B2",
"b#	c #BEBCBF",
"c#	c #AEACB3",
"d#	c #9FA0B1",
"e#	c #85858C",
"f#	c #AFADAF",
"g#	c #A0A0A9",
"h#	c #99999F",
"i#	c #BBB8BB",
"j#	c #9C9B9C",
"k#	c #919091",
"l#	c #9D9C9D",
"m#	c #B4B2B4",
"n#	c #CDC9CD",
"o#	c #B5B3B6",
"p#	c #A0A0AC",
"q#	c #8A898D",
"r#	c #B9B5B7",
"s#	c #A0A0AE",
"t#	c #90919A",
"u#	c #A6A5A7",
"v#	c #A8A6A8",
"w#	c #A0A0A0",
"x#	c #A5A5A5",
"y#	c #B4B3B4",
"z#	c #CCC8CC",
"A#	c #A9A8AE",
"B#	c #9FA0AE",
"C#	c #8A8B93",
"D#	c #ABA8AB",
"E#	c #C5C0C4",
"F#	c #BCB9BD",
"G#	c #A0A0A7",
"H#	c #92929F",
"I#	c #98979B",
"J#	c #BEBBBD",
"K#	c #C1BDC1",
"L#	c #AFAEAF",
"M#	c #B1B0B1",
"N#	c #B6B4B6",
"O#	c #CBC7CB",
"P#	c #BAB7BB",
"Q#	c #9F9FA8",
"R#	c #9B9BAA",
"S#	c #8D8E98",
"T#	c #9C9A9E",
"U#	c #C4C0C4",
"V#	c #939399",
"W#	c #9494A1",
"X#	c #9899A7",
"Y#	c #9C9DAB",
"Z#	c #99989C",
"`#	c #B8B6B8",
" $	c #B3B1B3",
".$	c #B7B5B7",
"+$	c #97969E",
"@$	c #9394A1",
"#$	c #9799A8",
"$$	c #9D9DAC",
"%$	c #9697A4",
"&$	c #93949D",
"*$	c #C1BDC0",
"=$	c #A7A5A5",
"-$	c #9C9BA0",
";$	c #90909B",
">$	c #8D8E99",
",$	c #8C8D98",
"'$	c #8E8E99",
")$	c #93939C",
"!$	c #9999A0",
"~$	c #A3A1A5",
"{$	c #AEABAE",
"]$	c #AEACAE",
"^$	c #B0ADB0",
"/$	c #B6B3B6",
"($	c #C2C0C1",
"_$	c #A8A7A9",
":$	c #9C9CA1",
"<$	c #95969E",
"[$	c #90909A",
"}$	c #8D8D98",
"|$	c #8E8F99",
"1$	c #9A999F",
"2$	c #A09FA1",
"3$	c #C0BEBF",
"4$	c #CBC8CB",
"5$	c #BFBDBF",
"6$	c #A09FA2",
"7$	c #9C9B9E",
"8$	c #A8A5A8",
"9$	c #C3C1C3",
"0$	c #C0BCC0",
"a$	c #C8C4C8",
"b$	c #BFBCBD",
"c$	c #AEACAD",
"d$	c #9B9A9D",
"e$	c #9E9C9F",
"f$	c #B8B5B7",
"g$	c #CDCACD",
"h$	c #CECBCD",
"i$	c #CECACD",
"j$	c #CCC8CB",
"k$	c #B0AEB0",
"l$	c #CDCACC",
"m$	c #B2AFB2",
"n$	c #B7B4B7",
"o$	c #B2B1B2",
"p$	c #B6B5B6",
"q$	c #ABAAAB",
"r$	c #A6A5A6",
"s$	c #A9A8A9",
"t$	c #B5B3B5",
"u$	c #A1A0A1",
"v$	c #9A999A",
"w$	c #A3A3A3",
"x$	c #939393",
"y$	c #828282",
"z$	c #A6A4A6",
"A$	c #C7C3C6",
"B$	c #9A999D",
"C$	c #CCC9CB",
"D$	c #B5B4BC",
"E$	c #9F9EA6",
"F$	c #B7B5BB",
"G$	c #BFBDC3",
"H$	c #BCB9BF",
"I$	c #BCBAC0",
"J$	c #BCBABF",
"K$	c #BDBBC0",
"L$	c #AEAEB9",
"M$	c #A4A5B2",
"N$	c #A4A4B1",
"O$	c #A4A5B1",
"P$	c #A0A1AF",
"Q$	c #7E7F8A",
"R$	c #72727C",
"S$	c #696A73",
"T$	c #80808D",
"U$	c #6D6E77",
"V$	c #59595E",
"W$	c #4D4D4D",
"X$	c #464546",
"Y$	c #505056",
"Z$	c #8B8B99",
"`$	c #2C2D30",
" %	c #46474D",
".%	c #898B98",
"+%	c #A4A5B6",
"@%	c #6B6C77",
"#%	c #5D5D64",
"$%	c #515155",
"%%	c #6B6B6C",
"&%	c #747474",
"*%	c #9C9C9B",
"=%	c #CCCCCB",
"-%	c #A7A7A7",
";%	c #504F51",
">%	c #666671",
",%	c #60616A",
"'%	c #222326",
")%	c #303035",
"!%	c #6F707B",
"~%	c #9D9FAE",
"{%	c #6E6F77",
"]%	c #4B4C50",
"^%	c #414242",
"/%	c #7D7D7D",
"(%	c #A1A1A1",
"_%	c #DEDEDD",
":%	c #D7D7D7",
"<%	c #CBCBCC",
"[%	c #BCBCBC",
"}%	c #555558",
"|%	c #6B6C78",
"1%	c #6D6E79",
"2%	c #37383D",
"3%	c #2B2B2F",
"4%	c #4A4A50",
"5%	c #696973",
"6%	c #A5A5B5",
"7%	c #80818E",
"8%	c #6E6E79",
"9%	c #686970",
"0%	c #606064",
"a%	c #5F5F5E",
"b%	c #717170",
"c%	c #F0F0F0",
"d%	c #CFCFCF",
"e%	c #DBDBDC",
"f%	c #EEEEEF",
"g%	c #DEDEDF",
"h%	c #B6B6B6",
"i%	c #787979",
"j%	c #515258",
"k%	c #7D7E89",
"l%	c #63636D",
"m%	c #38383D",
"n%	c #1F2021",
"o%	c #28282B",
"p%	c #4F4F56",
"q%	c #6E6E76",
"r%	c #72737D",
"s%	c #74747F",
"t%	c #6B6B73",
"u%	c #5A5A5F",
"v%	c #5D5D5E",
"w%	c #797979",
"x%	c #E0E0DF",
"y%	c #E0E0E0",
"z%	c #F8F8F8",
"A%	c #DCDCDC",
"B%	c #C7C7C7",
"C%	c #929291",
"D%	c #565657",
"E%	c #515157",
"F%	c #7D7E8B",
"G%	c #888896",
"H%	c #585961",
"I%	c #1F1E21",
"J%	c #181819",
"K%	c #272727",
"L%	c #3A3A3B",
"M%	c #404040",
"N%	c #4E4E4D",
"O%	c #80807F",
"P%	c #ADADAB",
"Q%	c #B0B0AE",
"R%	c #AFAFAD",
"S%	c #D3D3D2",
"T%	c #D9D9D8",
"U%	c #B9B9B8",
"V%	c #C2C2C1",
"W%	c #CCCBCB",
"X%	c #969695",
"Y%	c #5A5A5B",
"Z%	c #454548",
"`%	c #616169",
" &	c #7D7F8B",
".&	c #53535B",
"+&	c #444549",
"@&	c #5D5D60",
"#&	c #6A6A6C",
"$&	c #707072",
"%&	c #858687",
"&&	c #99999C",
"*&	c #909193",
"=&	c #7F8081",
"-&	c #8A8B8D",
";&	c #838387",
">&	c #767679",
",&	c #6D6D71",
"'&	c #646468",
")&	c #4E4E54",
"!&	c #5F5F68",
"~&	c #A1A2B0",
"{&	c #8E8E9B",
"]&	c #8C8D99",
"^&	c #868792",
"/&	c #81828D",
"(&	c #858591",
"_&	c #878794",
":&	c #A0A2B1",
"<&	c #7C7D88",
"[&	c #999BAA",
"}&	c #9C9CAB",
"|&	c #9798A4",
"1&	c #676871",
"2&	c #6C6D77",
"3&	c #8F9098",
"4&	c #7F7F87",
"5&	c #808188",
". . . + @ # # # # # # # # # # # # # # # # # # # # # # # # # # # # # # # # # # $ % & * * * * * * * * * * * * * * * * * * * * * * * * * * * * * * * * * * * * * * * = = = = = = = = = = = = = = = ",
". . . - ; # # # # # # # # # # # # # # # # # # # # # # # # # # # # # # # # # # > & * * * * * * * * * * * * * * * * * * * * * * * * * * * * * * * * * * * * * * * * = = = = = = = = = = = = = = = ",
". . . # # # # # # # # # # # # # # # # # # # # # # # # # # # # # # # # # # # # * * * * * * * * * * * * * * * * * * * * * * * * * * * * * * * * * * * * * * * * * * = = = = = = = = = = = = = = = ",
". + $ # # # # # # # # # # # # # # # # # # # # # # # # # # # # # # # # # # $ , * * * * * * * * * * * * * * * * * * * * * * * * * * * * * * * * * * * * * * * * * ' = = = = = = = = = = = = = = = ",
"+ ) # # # # # # # # # # # # # # # # # # # # # # # # # # # # # # # # # # $ ! & * * * * * * * * * * * * * * * * * * * * * * * * * * * * * * * * * * * * * * * * ' ~ = = = = = = = = = = = = = = = ",
"- ; # # # # # # # # # # # # # # # # # # # # # # # # # # # # # # # # # # { & * * * * * * * * * * * * * * * * * * * * * * * * * * * * * * * * * * * * * * * * * ] ^ = = = = = = = = = = = = = = = ",
"# # # # # # # # # # # # # # # # # # # # # # # # # # # # # # # # # # # ; * * * * * * * * * * * * * * * * * * * * * * * * * * * * * * * * * * * * * * * * * * & = = = = = = = = = = = = = = = = = ",
"# # # # # # # # # # # # # # # # # # # # # # # # # # # # # # # # # # $ , * * * * * * * * * * * * * * * * * * * * * * * * * * * * * * * * * * * * * * * * * ' / = = = = = = = = = = = = = = = = = ",
"# # # # # # # # # # # # # # # # # # # # # # # # # # # # # # # # # $ ( & * * * * * * * * * * * * * * * * * * * * * * * * * * * * * * * * * * * * * * * * ' _ ^ = = = = = = = = = = = = = = = = = ",
"# # # # # # # # # # # # # # # # # # # # # # # # # # # # # # # # $ : & * * * * * * * * * * * * * * * * * * * * * * * * * * * * * * * * * * * * * * * * ' < ^ = = = = = = = = = = = = = = = = = = ",
"# # # # # # # # # # # # # # # # # # # # # # # # # # # # # # # # ; & * * * * * * * * * * * * * * * * * * * * * * * * * * * * * * * * * * * * * * * * * & ^ = = = = = = = = = = = = = = = = = = = ",
"# # # # # # # # # # # # # # # # # # # # # # # # # # # # # # # $ ' * * * * * * * * * * * * * * * * * * * * * * * * * * * * * * * * * * * * * * * * * ' [ = = = = = = = = = = = = = = = = = = = = ",
"# # # # # # # # # # # # # # # # # # # # # # # # # # # # # # $ } & * * * * * * * * * * * * * * * * * * * * * * * * * * * * * * * * * * * * * * * * ' | ^ = = = = = = = = = = = = = = = = = = = = ",
"# # # # # # # # # # # # # # # # # # # # # # # # # # # # # $ 1 & * * * * * * * * * * * * * * * * * * * * * * * * * * * * * * * * * * * * * * * * ' 2 ^ = = = = = = = = = = = = = = = = = = = = = ",
"# # # # # # # # # # # # # # # # # # # # # # # # # # # # # 3 & * * * * * * * * * * * * * * * * * * * * * * * * * * * * * * * * * * * * * * * * * 4 ^ = = = = = = = = = = = = = = = = = = = = = = ",
"# # # # # # # # # # # # # # # # # # # # # # # # # # # # # ' * * * * * * * * * * * * * * * * * * * * * * * * * * * * * * * * * * * * * * * * * * [ = = = = = = = = = = = = = = = = = = = = = = = ",
"# # # # # # # # # # # # # # # # # # # # 5 5 5 5 6 7 # $ 8 9 * * * * * * * * * 0 a b b a 0 * * c d e * * * * * * * * * * * * * * * * * * e d f g h i j = = = = = = = = = = = = = = = = = = = = = ",
"# # # # # # # # # # # # # # # # # # # # b b b b b b k l & * * * * * * * * * * m b n m b m * * o b d * * * * * * * * * * * * * * * * * * d b p ^ i b q = = = = = = = = = = = = = = = = = = = = = ",
"# # # # # # # # # # # r s s # # # # # # b b # 7 5 b b t * * * 0 o o * * * * c b n * * n b c * o b d * * * * * * * * * * * * * * c o o 0 d b u = = = = = = = = q q v = = = = = = = = = = = = = = ",
"# # # # # # # # # # 6 b b b w s b b # # b b # # # x b o * * d b b b b a * * o b m * * c o 0 d b b b b * b b * * * o b d * * 0 m b b b b n b q = i b q = = q y b b b z = = = = = = = = = = = = = ",
"# # # # # # # # # A b b A s x b b b # # b b # # B C b o * d b n o a b b a * 0 b b d c * * * e m b n d * b b * * * o b d * * m b n o e C b b q = i b q = q b b h q y b i = = = = = = = = = = = = ",
"# # # # # # # # # w b s # # # w b b # # b b s D C b n * c b n 0 * * e b b * * e b b b m 0 * * o b d * * b b * * * o b d * c b n 0 * ' E b b q = i b q = y b q = = v y b j = = = = = = = = = = = ",
"# # # # # # # # 7 b w # # # # s b b # # b b b b b n o * a b e * * * * * * * * * c d b b n 0 * o b d * * b b * * * o b d * a b e * * F ^ i b q = i b q j b y = = = = z b z = = = = = = = = = = = ",
"# # # # # # # # s b 5 # # # # s b b # # b b s o o * * * d b o * * * * * * * * * * * 0 m b a * o b d * * b b * * * o b d * d b o * * = = i b q = i b q q b i = = = = q b i = = = = = = = = = = = ",
"# # # # # # # # s b x # # # # s b b # # b b G * * * * * d b e * * * * * * * c o 0 * * o b d * o b d * * b b * * * o b d * d b e ' H = = i b q = i b q q b I = = = = h b i = = = = = = = = = = = ",
"# # # # # # # # # b b 7 # # r w b b # # b b & * * * * * c b n 0 * * e b b 0 d b a * * a b a * o b d * * n b o * * m b d * o b C J ^ = v b b q = i b q = y b q = = v y b j = = = = = = = = = = = ",
"# # # # # # # # # 6 b w A s w b b b # # b b * * * * * * * d b n o e b b a * c b b e e b b 0 * o b d * * a b n e d b b d * * m b y q h y b b q = i b q = q b b h q y b i = = = = = = = = = = = = ",
"# # # # # # # # # # 6 b b b b A b b # # b b * * * * * * * * d b b b b e * * * o b b b b o * * o b d * * 0 n b b b d b d * * 0 I b b b I I b q = i b q = = q b b b b i = = = = = = = = = = = = = ",
"# # # # # # # # # # # r s s r # # # $ , * * * * * * * * * * * 0 o o * * * * * * * o o 0 * * * * * * * * * * o o 0 * * * ' ' / = j q j = = = = = = = = = = = = q q v = = = = = = = = = = = = = = ",
"# # # # # # # # # # # # # # # # # $ ! & * * * * * * * * * * * * * * * * * * * * * * * * * * * * * * * * * * * * * * * ' ~ ~ ^ = = = = = = = = = = = = = = = = = = = = = = = = = = = = = = = = = ",
"# # # # # # # # # # # # # # # # # { & * * * * * * * * * * * * * * * * * * * * * * * * * * * * * * * * * * * * * * * * ] ^ ^ = = = = = = = = = = = = = = = = = = = = = = = = = = = = = = = = = = ",
"# # # # # # # # # # # # # # # # ; * * * * * * * * * * * * * * * * * * * * * * * * * * * * * * * * * * * * * * * * * & = = = = = = = = = = = = = = = = = = = = = = = = = = = = = = = = = = = = = ",
"# # # # # # # # # # # # # # # $ , * * * * * * * * * * * * * * * * * * * * * * * * * * * * * * * * * * * * * * * * ' / = = = = = = = = = = = = = = = = = = = = = = = = = = = = = = = = = = = = = ",
"# # # # # # # # # # # # # # $ ( & * * * * * * * * * * * * * * * * * * * * * * * * * * * * * * * * * * * * * * * ' _ ^ = = = = = = = = = = = = = = = = = = = = = = = = = = = = = = = = = = = = = ",
"# # # # # # # # # # # # $ $ { & * * * * * * * * * * * * * * * * * * * * * * * * * * * * * * * * * * * * * * * ' ] ^ = = = = = = = = = = = = = = = = = = = = = = = = = = = = = = = = = = = = = = ",
"# # # # # # # # # # # # ; ; & * * * * * * * * * * * * * * * * * * * * * * * * * * * * * * * * * * * * * * * * & ^ = = = = = = = = = = = = = = = = = = = = = = = = = = = = = = = = = = = = = = = ",
"# # # # # # # # # # # $ ' ' * * * * * * * * * * * * * * * * * * * * * * * * * * * * * * * * * * * * * * * * ' [ = = = = = = = = = = = = = = = = = = = = = = = = = = = = = = = = = = = = = = = = ",
"# # # # # # # # # # $ } & & * * * * * * * * * * * * * * * * * * * * * * * * * * * * * * * * * * * * * * * ' | ^ = = = = = = = = = = = = = = = = = = = = = = = = = = = = = = = = = = = = = = = = ",
"# # # # # # # # # $ 1 & * * * * * * * * * * * * * * * * * * * * * * * * * * * * * * * * * * * * * * * * ' 2 ^ = = = = = = = = = = = = = = = = = = = = = = = = = = = = = = = = = = = = = = = = = ",
"# # # # # # # # # ; & * * * * * * * * * * * * * * * * * * * * * * * * * * * * * * * * * * * * * * * * * & ^ = = = = = = = = = = = = = = = = = = = = = = = = = = = = = = = = = = = = = = = = = = ",
"# # # # # # # # K ' * * * * * * * * * * * * * * * * * * * * * * * * * * * * * * * * * * * * * * * * * L [ = = = = = = = = = = = = = = = = = = = = = = = = = = = = = = = = = = = = = = = = = = = ",
"# # # # # # # $ 8 9 * * * * * * * * * * * * * * * * * * * * * * * * * * * * * * * * * * * * * * * * ' g M = = = = = = = = = = = = = = = = = = = = = = = = = = = = = = = = = = = = = = = = = = = ",
"# # # # # # $ l & * * * * * * * * * * * * * * * * * * * * * * * * * * * * * * * * * * * * * * * * ' N ^ = = = = = = = = = = = = = = = = = = = = = = = = = = = = = = = = = = = = = = = = = = = = ",
"# # # # # # O & * * * * * * * * * * * * * * * * * * * * * * * * * * * * * * * * * * * * * * * * * P ^ = = = = = = = = = = = = = = = = = = = = = = = = = = = = = = = = = = = = = = = = = = = = = ",
"# # # # # # * * * * * * * * * * * * * * * * * * * * * * * * * * * * * * * * * * * * * * * * * * * = = = = = = = = = = = = = = = = = = = = = = = = = = = = = = = = = = = = = = = = = = = = = = = ",
"# # # # $ Q * * * * * * * * * * * * * * * * * * * * * * * * * * * * * * * * * * * * * * * * * ' R = = = = = = = = = = = = = = = = = = = = = = = = = = = = = = = = = = = = = = = = = = = = = = [ ",
"# # # $ S & * * * * * * * * * * * * * * * * * * * * * * * * * * * * * * * * * * * * * * * * ' T ^ = = = = = = = = = = = = = = = = = = = = = = = = = = = = = = = = = = = = = = = = = = = = = [ U ",
"# # # O & * * * * * * * * * * * * * * * * * * * * * * * * * * * * * * * * * * * * * * * * * P ^ = = = = = = = = = = = = = = = = = = = = = = = = = = = = = = = = = = = = = = = = = = = = = = V W ",
"# # # * * * * * * * * * * * * * * * * * * * * * * * * * * * * * * * * * * * * * * * * * * * = = = = = = = = = = = = = = = = = = = = = = = = = = = = = = = = = = = = = = = = = = = = = = = = X X ",
"# $ G * * * * * * * * * * * * * * * * * * * * * * * * * * * * * * * * * * * * * * * * * ' H = = = = = = = = = = = = = = = = = = = = = = = = = = = = = = = = = = = = = = = = = = = = = = [ Y X X ",
"$ % & * * * * * * * * * * * * * * * * * * * * * * * * * * * * * * * * * * * * * * * * ' Z ^ = = = = = = = = = = = = = = = = = = = = = = = = = = = = = = = = = = = = = = = = = = = = = [ ` W X X ",
"> & * * * * * * * * * * * * * * * * * * * * * * * * * * * * * * * * * * * * * * * * *  .^ = = = = = = = = = = = = = = = = = = = = = = = = = = = = = = = = = = = = = = = = = = = = = = ..W X X X ",
"* * * * * * * * * * * * * * * * * * * * * * * * * * * * * * * * * * * * * * * * * * * = = = = = = = = = = = = = = = = = = = = = = = = = = = = = = = = = = = = = = = = = = = = = = = = X X X X X ",
"* * * * * * * * * * * * * * * * * * * * * * * * * * * * * * * * * * * * * * * * * ' / = = = = = = = = = = = = = = = = = = = = = = = = = = = = = = = = = = = = = = = = = = = = = = [ +.X X X X X ",
"* * * * * * * * * * * * * * * * * * * * * * * * * * * * * * * * * * * * * * * * ' ~ ^ = = = = = = = = = = = = = = = = = = = = = = = = = = = = = = = = = = = = = = = = = = = = = [ @.W X X X X X ",
"* * * * * * * * * * * * * * * * * * * * * * * * * * * * * * * * * * * * * * * * #.^ = = = = = = = = = = = = = = = = = = = = = = = = = = = = = = = = = = = = = = = = = = = = = $.%.W X X X X X X ",
"* * * * * * * * * * * * * * * * * * * * * * * * * * * * * * * * * * * * * * * 9 = = = = = = = = = = = = = = = = = = = = = = = = = = = = = = = = = = = = = = = = = = = = = = = ^ X X X X X X X X ",
"* * * * * * * * * * * * * * * * * * * * * * * * * * * * * * * * * * * * * * ' / = = = = = = = = = = = = = = = = = = = = = = = = = = = = = = = = = = = = = = = = = = = = = = [ &.X X X X X X X X ",
"* * * * * * * * * * * * * * * * * * * * * * * * * * * * * * * * * * * * * ' *.^ = = = = = = = = = = = = = = = = = = = = = = = = = = = = = = = = = = = = = = = = = = = = = [ =.W X X X X X X X X ",
"* * * * * * * * * * * * * * * * * * * * * * * * * * * * * * * * * * * * L ] ^ = = = = = = = = = = = = = = = = = = = = = = = = = = = = = = = = = = = = = = = = = = = = = [ -.W X X X X X X X X X ",
"* * * * * * * * * * * * * * * * * * * * * * * * * * * * * * * * * * * * & ^ = = = = = = = = = = = = = = = = = = = = = = = = = = = = = = = = = = = = = = = = = = = = = = ^ W X X X X X X X X X X ",
"* * * * * * * * * * * * * * * * * * * * * * * * * * * * * * * * * * * ' [ = = = = = = = = = = = = = = = = = = = = = = = = = = = = = = = = = = = = = = = = = = = = = = [ ;.X X X X X X X X X X X ",
"* * * * * * * * * * * * * * * * * * * * * * * * * * * * * * * * * * ' _ ^ = = = = = = = = = = = = = = = = = = = = = = = = = = = = = = = = = = = = = = = = = = = = = [ >.W X X X X X X X X X X X ",
"* * * * * * * * * * * * * * * * * * * * * * * * * * * * * * * * * ' 2 ^ = = = = = = = = = = = = = = = = = = = = = = = = = = = = = = = = = = = = = = = = = = = = = [ ,.W X X X X X X X X X X X X ",
"* * * * * * * * * * * * * * * * * * * * * * * * * * * * * * * * * & ^ = = = = = = = = = = = = = = = = = = = = = = = = = = = = = = = = = = = = = = = = = = = = = = '.W X X X X X X X X X X X X X ",
"* * * * * * * * * * * * * * * * * * * * * * * * * * * * * * * * ' [ = = = = = = = = = = = = = = = = = = = = = = = = = = = = = = = = = = = = = = = = = = = = = = [ ).X X X X X X X X X X X X X X ",
"* * * * * * * * * * * * * * * * * * * * * * * * * * * * * * * ' g M = = = = = = = = = = = = = = = = = = = = = = = = = = = = = = = = = = = = = = = = = = = = = [ !.W X X X X X X X X X X X X X X ",
"* * * * * * * * * * * * * * * * * * * * * * * * * * * * * * ' N ^ = = = = = = = = = = = = = = = = = = = = = = = = = = = = = = = = = = = = = = = = = = = = = [ ~.W X X X X X X X X X X X X X X X ",
"* * * * * * * * * * * * * * * * * * * * * * * * * * * * * * P ^ = = = = = = = = = = = = = = = = = = = = = = = = = = = = = = = = = = = = = = = = = = = = = = {.W X X X X X X X X X X X X X X X X ",
"* * * * * * * * * * * * * * * * * * * * * * * * * * * * * * $.= = = = = = = = = = = = = = = = = = = = = = = = = = = = = = = = = = = = = = = = = = = = = = = ).X X X X X X X X X X X X X X X X X ",
"* * * * * * * * * * * * * * * * * * * * * * * * * * * * ' R = = = = = = = = = = = = = = = = = = = = = = = = = = = = = = = = = = = = = = = = = = = = = = [ ].^.X X X X X X X X X X X X X X X X X ",
"* * * * * * * * * * * * * * * * * * * * * * * * * * * ' T ^ = = = = = = = = = = = = = = = = = = = = = = = = = = = = = = = = = = = = = = = = = = = = = [ U W X X X X X X X X X X X X X X X X X X ",
"* * * * * * * * * * * * * * * * * * * * * * * * * * * P ^ = = = = = = = = = = = = = = = = = = = = = = = = = = = = = = = = = = = = = = = = = = = = = = V W X X X X X X X X X X X X X X X X X X X ",
"* * * * * * * * * * * * * * * * * * * * * * * * * * * = = = = = = = = = = = = = = = = = = = = = = = = = = = = = = = = = = = = = = = = = = = = = = = = X X X X X X X X X X X X X X X X X X X X X ",
"* * * * * * * * * * * * * * * * * * * * * * * * * ' H = = = = = = = = = = = = = = = = = = = = = = = = = = = = = = = = = = = = = = = = = = = = = = [ Y X X X X X X X X X X X X X X X X X X X X X ",
"* * * * * * * * * * * * * * * * * * * * * * * * ' /.^ = = = = = = = = = = = = = = = = = = = = = = = = = = = = = = = = = = = = = = = = = = = = = [ ` W X X X X X X X X X X X X X X X X X X X X X ",
"* * * * * * * * * * * * * * * * * * * * * * * *  .^ = = = = = = = = = = = = = = = = = = = = = = = = = = = = = = = = = = = = = = = = = = = = = = ..W X X X X X X X X X X X X X X X X X X X X X X ",
"* * * * * * * * * * * * * * * * * * * * * * * * = = = = = = = = = = = = = = = = = = = = = = = = = = = = = = = = = = = = = = = = = = = = = = = = X X X X X X X X X X X X X X X X X X X X X X X X ",
"* * * * * * * * * * * * * * * * * * * * * * ' / = = = = = = = = = = = = = = = = = = = = = = = = = = = = = = = = = = = = = = = = = = = = = = [ +.X X X X X X X X X X X X X X X X X X X X X X X X ",
"* * * * * * * * * * * * * * * * * * * * * ' ~ ^ = = = = = = = = = = = = = = = = = = = = = = = = = = = = = = = = = = = = = = = = = = = = = [ @.W X X X X X X X X X X X X X X X X X X X X X X X X ",
"* * * * * * * * * * * * * * * * * * * * * #.^ = = = = = = = = = = = = = = = = = = = = = = = = = = = = = = = = = = = = = = = = = = = = = = %.W X X X X X X X X X X X X X X X X X X X X X X X X X ",
"* * * * * * * * * * * * * * * * * * * * * = = = = = = = = = = = = = = = = = = = = = = = = = = = = = = = = = = = = = = = = = = = = = = = M X X X X X X X X X X X X X X X X X X X X X X X X X X X ",
"* * * * * * * * * * * * * * * * * * * ' / = = = = = = = = = = = = = = = = = = = = = = = = = = = = = = = = = = = = = = = = = = = = = = [ &.X X X X X X X X X X X X X X X X X X X X X X X X X X X ",
"* * * * * * * * * * * * * * * * * * ' *.^ = = = = = = = = = = = = = = = = = = = = = = = = = = = = = = = = = = = = = = = = = = = = = [ @.W X X X X X X X X X X X X X X X X X X X X X X X X X X X ",
"* * * * * * * * * * * * * * * * * L ] ^ = = = = = = = = = = = = = = = = = = = = = = = = = = = = = = = = = = = = = = = = = = = = = [ -.W X X X X X X X X X X X X X X X X X X X X X X X X X X X X ",
"* * * * * * * * * * * * * * * * * & M = = = = = = = = = = = = = = = = = = = = = = = = = = = = = = = = = = = = = = = = = = = = = = ^ W X X X X X X X X X X X X X X X X X X X X X X X X X X X X X ",
"* * * * * * * * * * * * * * * * ' [ = = = = = = = = = = = = = = = = = = = = = = = = = = = = = = = = = = = = = = = = = = = = = = [ ;.X X X X X X X X X X X X X X X X X X X X X X X X X X X X X X ",
"* * * * * * * * * * * * * * * ' _ ^ = = = = = = = = = = = = = = = = = = = = = = = = = = = = = = = = = = = = = = = = = = = = = [ >.W X X X X X X X X X X X X X X X X X X X X X X X X X X X X X X ",
"* * * * * * * * * * * * * * ' < ^ = = = = = = = = = = = = = = = = = = = = = = = = = = = = = = = = = = = = = = = = = = = = = [ (.W X X X X X X X X X X X X X X X X X X X X X X X X X X X X X X X ",
"* * * * * * * * * * * * * * & ^ = = = = = = = = = = = = = = = = = = = = = = = = = = = = = = = = = = = = = = = = = = = = = = ^ W X X X X X X X X X X X X X X X X X X X X X X X X X X X X X X X X ",
"* * * * * * * * * * * * * ' [ = = = = = = = = = = = = = = = = = = = = = = = = = = = = = = = = = = = = = = = = = = = = = = [ ).X X X X X X X X X X X X X X X X X X X X X X X X X X X X X X X X X ",
"* * * * * * * * * * * * ' g ^ = = = = = = = = = = = = = = = = = = = = = = = = = = = = = = = = = = = = = = = = = = = = = [ !.W X X X X X X X X X X X X X X X X X X X X X X X X X X X X X X X X X ",
"* * * * * * * * * * * ' 2 ^ = = = = = = = = = = = = = = = = = = = = = = = = = = = = = = = = = = = = = = = = = = = = = [ ,.W X X X X X X X X X X X X X X X X X X X X X X X X X X X X X X X X X X ",
"* * * * * * * * * * * P ^ = = = = = = = = = = = = = = = = = = = = = = = = = = = = = = = = = = = = = = = = = = = = = = {.W X X X X X X X X X X X X X X X X X X X X X X X X X X X X X X X X X X X ",
"* * * * * * * * * * * [ = = = = = = = = = = = = = = = = = = = = = = = = = = = = = = = = = = = = = = = = = = = = = = = ).X X X X X X X X X X X X X X X X X X X X X X X X X X X X X X X X X X X X ",
"* * * * * * * * * ' g = = = = = = = = = = = = = = = = = = = = = = = = = = = = = = = = = = = = = = = = = = = = = = [ ].^.X X X X X X X X X X X X X X X X X X X X X X X X X X X X X X X X X X X X ",
"* * * * * * * * ' T ^ = = = = = = = = = = = = = = = = = = = = = = = = = = = = = = = = = = = = = = = = = = = = = [ U W X X X X X X X X X X X X X X X X X X X X X X X X X X X X X X X X X X X X X ",
"* * * * * * * * P ^ = = = = = = = = = = = = = = = = = = = = = = = = = = = = = = = = = = = = = = = = = = = = = = V W X X X X X X X X X X X X X X X X X X X X X X X X X X X X X X X X X X X X X X ",
"* * * * * * * * = = = = = = = = = = = = = = = = = = = = = = = = = = = = = = = = = = = = = = = = = = = = = = = = X X X X X X X X X X X X X X X X X X X X X X X X X X X X X X X X X X X X X X X X ",
"* * * * * ' H H = = = = = = = = = = = = = = = = = = = = = = = = = = = = = = = = = = = = = = = = = = = = = = [ _.X X X X X X X X X X X X X X X X X X X X X X X X X X X X X X X X X X X X X X X X ",
"* * * * ' /.^ ^ = = = = = = = = = = = = = = = = = = = = = = = = = = = = = = = = = = = = = = = = = = = = = [ ` W X X X X X X X X X X X X X X X X X X X X X X X X X X X X X X X X X X X X X X X X ",
"* * * *  .^ = = = = = = = = = = = = = = = = = = = = = = = = = = = = = = = = = = = = = = = = = = = = = = = ..W X X X X X X X X X X X X X X X X X X X X X X X X X X X X X X X X X X X X X X X X X ",
"* * * * = = = = = = = = = = = = = = = = = = = = = = = = = = = = = = = = = = = = = = = = = = = = = = = = = X X X X X X X X X X X X X X X X X X X X X X X X X X X X X X X X X X X X X X X X X X X ",
"* * ' :.= = = = = = = = = = = = = = = = = = = = = = = = = = = = = = = = = = = = = = = = = = = = = = = [ Y X X X X X X X X X X X X X X X X X X X X X X X X X X X X X X X X X X X X X X X X X X X ",
"* ' Z ^ = = = = = = = = = = = = = = = = = = = = = = = = = = = = = = = = = = = = = = = = = = = = = = [ <.W X X X X X X X X X X X X X X X X X X X X X X X X X X X X X X X X X X X X X X X X X X X ",
"*  .^ = = = = = = = = = = = = = = = = = = = = = = = = = = = = = = = = = = = = = = = = = = = = = = = [.W X X X X X X X X X X X X X X X X X X X X X X X X X X X X X X X X X X X X X X X X X X X X ",
"* = = = = = = = = = = = = = = = = = = = = = = = = = = = = = = = = = = = = = = = = = = = = = = = = = X X X X X X X X X X X X X X X X X X X X X X X X X X X X X X X X X X X X X X X X X X X X X X ",
"/ = = = = = = = = = = = = = = = = = = = = = = = = = = = = = = = = = = = = = = = = = = = = = = = [ &.X X X X X X X X X X X X X X X X X X X X X X X X X X X X X X X X X X X X X X X X X X X X X X ",
"^ = = = = = = = = = = = = = = = = = = = = = = = = = = = = = = = = = = = = = = = = = = = = = [ [ @.W X X X X X X X X X X X X X X X X X X X X X X X X X X X X X X X X X X X X X X X X X X X X X X ",
"= = = = = = = = = = = = = = = = = = = = = = = = = = = = = = = = = = = = = = = = = = = = = [ -.-.W X X X X X X X X X X X X X X X X X X X X X X X X X X X X X X X X X X X X X X X X X X X X X X X ",
"= = = = = = = = = = = = = = = = = = = = = = = = = = = = = = = = = = = = = = = = = = = = = ^ ^.^.X X X X X X X X X X X X X X X X X X X X X X X X X X X X X X X X X X X X X X X X X X X X X X X X ",
"= = = = = = = = = = = = = = = = = = = = = = = = = = = = = = = = = = = = = = = = = = = = [ &.X X X X X X X X X X X X X X X X X X X X X X X X X X X X X X X X X X X X X X X X X X X X X X X X X X ",
"= = = = = = = = = = = = = = = = = = = = = = = = = = = = = = = = = = = = = = = = = = = [ >.W X X X X X X X X X X X X X X X X X X X X X X X X X X X X X X X X X X X X X X X X X X X X X X X X X X ",
"= = = = = = = = = = = = = = = = = = = = = = = = = = = = = = = = = = = = = = = = = = [ (.W X X X X X X X X X X X X X X X X X X X X X X X X X X X X X X X X X X X X X X X X X X X X X X X X X X X ",
"= = = = = = = = = = = = = = = = = = = = = = = = = = = = = = = = = = = = = = = = = = ^ W X X X X X X X X X X X X X X X X X X X X X X X X X X X X X X X X X X X X X X X X X X X X X X X X X X X X ",
"= = = = = = = = = = = = = = = = = = = = = = = = = = = = = = = = = = = = = = = = = [ ).X X X X X X X X X X X X X X X X X X X X X X X X X X X X X X X X X X X X X X X X X X X X X X X X X X X X X ",
"= = = = = = = = = = = = = = = = = = = = = = = = = = = = = = = = = = = = = = = = [ }.W X X X X X X X X X X X X X X X X X X X X X X X X X X X X X X X X X X X X X X X X X X X X X X X X X X X X X ",
"= = = = = = = = = = = = = = = = = = = = = = = = = = = = = = = = = = = = = = = [ ,.W X X X X X X X X X X X X X X X X X X X X X X X X X X X X X X X X X X X X X X X X X X X X X X X X X X X X X X ",
"= = = = = = = = = = = = = = = = = = = = = = = = = = = = = = = = = = = = = = = {.W X X X X X X X X X X X X X X X X X X X X X X X X X X X X X X X X X X X X X X X X X X X X X X X X X X X X X X X ",
"= = = = = = = = = = = = = = = = = = = = = = = = = = = = = = = = = = = = = = $.).X X X X X X X X X X X X X X X X X X X X X X X X X X X X X X X X X X X X X X X X X X X X X X X X X X X X X X X X ",
"= = = = = = = = = = = = = = = = = = = = = = = = = = = = = = = = = = = = = [ ].^.X X X X X X X X X X X X X X X X X X X X X X X X X X X X X X X X X X X X X X X X X X X X X X X X X X X X X X X X ",
"= = = = = = = = = = = = = = = = = = = = = = = = = = = = = = = = = = = = [ U W X X X X X X X X X X X X X X X X X X X X X X X X X X X X X X X X X X X X X X X X X X X X X X X X X X X X X X X X ).",
"= = = = = = = = = = = = = = = = = = = = = = = = = = = = = = = = = = = = {.W X X X X X X X X X X X X X X X X X X X X X X X X X X X X X X X X X X X X X X X X X X X X X X X X X X X X X X X X X |.",
"= = = = = = = = = = = = = = = = = = = = = = = = = = = = = = = = = = = = X X X X X X X X X X X X X X X X X X X X X X X X X X X X X X X X X X X X X X X X X X X X X X X X X X X X X X X X X X X 1.",
"= = = = = = = = = = = = = = = = = = = = = = = = = = = = = = = = = = [ _.X X X X X X X X X X X X X X X X X X X X X X X X X X X X X X X X X X X X X X X X X X X X X X X X X X X X X X X X X ).2.3.",
"= = = = = = = = = = = = = = = = = = = = = = = = = = = = = = = = = [ ` W X X X X X X X X X X X X X X X X X X X X X X X X X X X X X X X X X X X X X X X X X X X X X X X X X X X X X X X X ).4.3.1.",
"= = = = = = = = = = = = = = = = = = = = = = = = = = = = = = = = = ..W X X X X X X X X X X X X X X X X X X X X X X X X X X X X X X X X X X X X X X X X X X X X X X X X X X X X X X X X X 5.3.1.1.",
"= = = = = = = = = = = = = = = = = = = = = = = = = = = = = = = = = X X X X X X X X X X X X X X X X X X X X X X X X X X X X X X X X X X X X X X X X X X X X X X X X X X X X X X X X X X X 1.1.1.1.",
"= = = = = = = = = = = = = = = = = = = = = = = = = = = = = = = [ Y X X X X X X X X X X X X X X X X X X X X X X X X X X X X X X X X X X X X X X X X X X X X X X X X X X X X X X X X X ).6.1.1.1.1.",
"= = = = = = = = = = = = = = = = = = = = = = = = = = = = = = [ ` W X X X X X X X X X X X X X X X X X X X X X X X X X X X X X X X X X X X X X X X X X X X X X X X X X X X X X X X X ).4.3.1.1.1.1.",
"= = = = = = = = = = = = = = = = = = = = = = = = = = = = = = [.W X X X X X X X X X X X X X X X X X X X X X X X X X X X X X X X X X X X X X X X X X X X X X X X X X X X X X X X X ).7.3.1.1.1.1.1.",
"= = = = = = = = = = = = = = = = = = = = = = = = = = = = = = X X X X X X X X X X X X X X X X X X X X X X X X X X X X X X X X X X X X X X X X X X X X X X X X X X X X X X X X X X X 1.1.1.1.1.1.1.",
"= = = = = = = = = = = = = = = = = = = = = = = = = = = = [ &.X X X X X X X X X X X X X X X X X X X X X X X X X X X X X X X X X X X X X X X X X X X X X X X X X X X X X X X X X ).8.1.1.1.1.1.1.1.",
"= = = = = = = = = = = = = = = = = = = = = = = = = = = [ @.W X X X X X X X X X X X X X X X X X X X X X X X X X X X X X X X X X X X X X X X X X X X X X X X X X X X X X X X X ).9.3.1.1.1.1.1.1.1.",
"= = = = = = = = = = = = = = = = = = = = = = = = = = $.%.W X X X X X X X X X X X X X X X X X X X X X X X X X X X X X X X X X X X X X X X X X X X X X X X X X X X X X X X X ).0.3.1.1.1.1.1.1.1.1.",
"= = = = = = = = = = = = = = = = = = = = = = = = = = ^ ^.X X X X X X X X X X X X X X X X X X X X X X X X X X X X X X X X X X X X X X X X X X X X X X X X X X X X X X X X X W 3.1.1.1.1.1.1.1.1.1.",
"= = = = = = = = = = = = = = = = = = = = = = = = = [ &.X X X X X X X X X X X X X X X X X X X X X X X X X X X X X X X X X X X X X X X X X X X X X X X X X X X X X X X X X ).a.1.1.1.1.1.1.1.1.1.1.",
"= = = = = = = = = = = = = = = = = = = = = = = = [ >.W X X X X X X X X X X X X X X X X X X X X X X X X X X X X X X X X X X X X X X X X X X X X X X X X X X X X X X X X ).b.3.1.1.1.1.1.1.1.1.1.1.",
"= = = = = = = = = = = = = = = = = = = = = = = [ (.W X X X X X X X X X X X X X X X X X X X X X X X X X X X X X X X X X X X X X X X X X X X X X X X X X X X X X X X X ).c.3.1.1.1.1.1.1.1.1.1.1.1.",
"= = = = = = = = = = = = = = = = = = = = = = = ^ W X X X X X X X X X X X X X X X X X X X X X X X X X X X X X X X X X X X X X X X X X X X X X X X X X X X X X X X X X d.3.1.1.1.1.1.1.1.1.1.1.1.1.",
"= = = = = = = = = = = = = = = = = = = = = = [ ).X X X X X X X X X X X X X X X X X X X X X X X X X X X X X X X X X X X X X X X X X X X X X X X X X X X X X X X X X X e.1.1.1.1.1.1.1.1.1.1.1.1.1.",
"= = = = = = = = = = = = = = = = = = = = = [ }.W X X X X X X X X X X X X X X X X X X X X X X X X X X X X X X X X X X X X X X X X X X X X X X X X X X X X X X X X X ).3.1.1.1.1.1.1.1.1.1.1.1.1.1.",
"= = = = = = = = = = = = = = = = = = = = [ ,.W X X X X X X X X X X X X X X X X X X X X X X X X X X X X X X X X X X X X X X X X X X X X X X X X X X X X X X X X X ).f.1.1.1.1.1.1.1.1.1.1.1.1.1.1.",
"= = = = = = = = = = = = = = = = = = = = {.W X X X X X X X X X X X X X X X X X X X X X X X X X X X X X X X X X X X X X X X X X X X X X X X X X X X X X X X X X X g.3.1.1.1.1.1.1.1.1.1.1.1.1.1.1.",
"= = = = = = = = = = = = = = = = = = = $.).X X X X X X X X X X X X X X X X X X X X X X X X X X X X X X X X X X X X X X X X X X X X X X X X X X X X X X X X X X ).h.1.1.1.1.1.1.1.1.1.1.1.1.1.1.1.",
"= = = = = = = = = = = = = = = = = = [ !.W X X X X X X X X X X X X X X X X X X X X X X X X X X X X X X X X X X X X X X X X X X X X X X X X X X X X X X X X X X i.3.1.1.1.1.1.1.1.1.1.1.1.1.1.1.1.",
"= = = = = = = = = = = = = = = = = [ U W X X X X X X X X X X X X X X X X X X X X X X X X X X X X X X X X X X X X X X X X X X X X X X X X X X X X X X X X X X ).3.1.1.1.1.1.1.1.1.1.1.1.1.1.1.1.1.",
"= = = = = = = = = = = = = = = = = {.W X X X X X X X X X X X X X X X X X X X X X X X X X X X X X X X X X X X X X X X X X X X X X X X X X X X X X X X X X X X |.1.1.1.1.1.1.1.1.1.1.1.1.1.1.1.1.1.",
"= = = = = = = = = = = = = = = = = X X X X X X X X X X X X X X X X X X X X X X X X X X X X X X X X X X X X X X X X X X X X X X X X X X X X X X X X X X X X X j.1.1.1.1.1.1.1.1.1.1.1.1.1.1.1.1.1.",
"= = = = = = = = = = = = = = = [ _.X X X X X X X X X X X X X X X X X X X X X X X X X X X X X X X X X X X X X X X X X X X X X X X X X X X X X X X X X X X ).2.3.1.1.1.1.1.1.1.1.1.1.1.1.1.1.1.1.1.",
"= = = = = = = = = = = = = = [ k.W X X X X X X X X X X X X X X X X X X X X X X X X X X X X X X X X X X X X X X X X X X X X X X X X X X X X X X X X X X ).l.3.1.1.1.1.1.1.1.1.1.1.1.1.1.1.1.1.1.1.",
"= = = = = = = = = = = = = = ..W X X X X X X X X X X X X X X X X X X X X X X X X X X X X X X X X X X X X X X X X X X X X X X X X X X X X X X X X X X X 5.3.1.1.1.1.1.1.1.1.1.1.1.1.1.1.1.1.1.1.1.",
"= = = = = = = = = = = = = = X X X X X X X X X X X X X X X X X X X X X X X X X X X X X X X X X X X X X X X X X X X X X X X X X X X X X X X X X X X X X 1.1.1.1.1.1.1.1.1.1.1.1.1.1.1.1.1.1.1.1.1.",
"= = = = = = = = = = = = [ Y X X X X X X X X X X X X X X X X X X X X X X X X X X X X X X X X X X X X X X X X X X X X X X X X X X X X X X X X X X X ).m.1.1.1.1.1.1.1.1.1.1.1.1.1.1.1.1.1.1.1.1.1.",
"= = = = = = = = = = = [ ` W X X X X X X X X X X X X X X X X X X X X X X X X X X X X X X X X X X X X X X X X X X X X X X X X X X X X X X X X X X ).4.3.1.1.1.1.1.1.1.1.1.1.1.1.1.1.1.1.1.1.1.1.1.",
"= = = = = = = = = = = [.W X X X X X X X X X X X X X X X X X X X X X X X X X X X X X X X X X X X X X X X X X X X X X X X X X X X X X X X X X X n.7.3.1.1.1.1.1.1.1.1.1.1.1.1.1.1.1.1.1.1.1.1.1.1.",
"= = = = = = = = = = = X X X X X X X X X X X X X X X X X X X X X X X X X X X X X X X X X X X X X X X X X X X X X X X X X X X X X X X X X X X X X 1.1.1.1.1.1.1.1.1.1.1.1.1.1.1.1.1.1.1.1.1.1.1.1.",
"= = = = = = = = = [ +.X X X X X X X X X X X X X X X X X X X X X X X X X X X X X X X X X X X X X X X X X X X X X X X X X X X X X X X X X X X ).8.1.1.1.1.1.1.1.1.1.1.1.1.1.1.1.1.1.1.1.1.1.1.1.1.",
"= = = = = = = = [ @.W X X X X X X X X X X X X X X X X X X X X X X X X X X X X X X X X X X X X X X X X X X X X X X X X X X X X X X X X X X ).9.3.1.1.1.1.1.1.1.1.1.1.1.1.1.1.1.1.1.1.1.1.1.1.1.1.",
"= = = = = = = $.%.W X X X X X X X X X X X X X X X X X X X X X X X X X X X X X X X X X X X X X X X X X X X X X X X X X X X X X X X X X X ).o.3.1.1.1.1.1.1.1.1.1.1.1.1.1.1.1.1.1.1.1.1.1.1.1.1.1.",
"= = = = = = = ^ X X X X X X X X X X X X X X X X X X X X X X X X X X X X X X X X X X X X X X X X X X X X X X X X X X X X X X X X X X X X W 3.1.1.1.1.1.1.1.1.1.1.1.1.1.1.1.1.1.1.1.1.1.1.1.1.1.1.",
"= = = = = = [ &.X X X X X X X X X X X X X X X X X X X X X X X X X X X X X X X X X X X X X X X X X X X X X X X X X X X X X X X X X X X ).a.1.1.1.1.1.1.1.1.1.1.1.1.1.1.1.1.1.1.1.1.1.1.1.1.1.1.1.",
"= = = = = [ >.W X X X X X X X X X X X X X X X X X X X X X X X X X X X X X X X X X X X X X X X X X X X X X X X X X X X X X X X X X X ).b.3.1.1.1.1.1.1.1.1.1.1.1.1.1.1.1.1.1.1.1.1.1.1.1.1.1.1.1.",
"= = = = [ -.W X X X X X X X X X X X X X X X X X X X X X X X X X X X X X X X X X X X X X X X X X X X X X X X X X X X X X X X X X X ).c.3.1.1.1.1.1.1.1.1.1.1.1.1.1.1.1.1.1.1.1.1.1.1.1.1.1.1.1.1.",
"= = = = ^ W X X X X X X X X X X X X X X X X X X X X X X X X X X X X X X X X X X X X X X X X X X X X X X X X X X X X X X X X X X X W 3.1.1.1.1.1.1.1.1.1.1.1.1.1.1.1.1.1.1.1.1.1.1.1.1.1.1.1.1.1.",
"= = = [ ).X X X X X X X X X X X X X X X X X X X X X X X X X X X X X X X X X X X X X X X X X X X X X X X X X X X X X X X X X X X ).a.1.1.1.1.1.1.1.1.1.1.1.1.1.1.1.1.1.1.1.1.1.1.1.1.1.1.1.1.1.1.",
"= = [ }.W X X X X X X X X X X X X X X X X X X X X X X X X X X X X X X X X X X X X X X X X X X X X X X X X X X X X X X X X X X ).p.3.1.1.1.1.1.1.1.1.1.1.1.1.1.1.1.1.1.1.1.1.1.1.1.1.1.1.1.1.1.1.",
"= [ ,.W X X X X X X X X X X X X X X X X X X X X X X X X X X X X X X X X X X X X X X X X X X X X X X X X X X X X X X X X X X ).q.3.1.1.1.1.1.1.1.1.1.1.1.1.1.1.1.1.1.1.1.1.1.1.1.1.1.1.1.1.1.1.1.",
"= '.W X X X X X X X X X X X X X X X X X X X X X X X X X X X X X X X X X X X X X X X X X X X X X X X X X X X X X X X X X X X g.3.1.1.1.1.1.1.1.1.1.1.1.1.1.1.1.1.1.1.1.1.1.1.1.1.1.1.1.1.1.1.1.1.",
"[ ).X X X X X X X X X X X X X X X X X X X X X X X X X X X X X X X X X X X X X X X X X X X X X X X X X X X X X X X X X X X ).h.1.1.1.1.1.1.1.1.1.1.1.1.1.1.1.1.1.1.1.1.1.1.1.1.1.1.1.1.1.1.1.1.1.",
"!.W X X X X X X X X X X X X X X X X X X X X X X X X X X X X X X X X X X X X X X X X X X X X X X X X X X X X X X X X X X ).i.3.1.1.1.1.1.1.1.1.1.1.1.1.1.1.1.1.1.1.1.1.1.1.1.1.1.1.1.1.1.1.1.1.1.",
"W X X X X X X X X X X X X X X X X X X X X X X X X X X X X X X X X X X X X X X X X X X X X X X X X X X X X X X X X X X ).r.3.1.1.1.1.1.1.1.1.1.1.1.1.1.1.1.1.1.1.1.1.1.1.1.1.1.1.1.1.1.1.1.1.1.1.",
"X X X X X X X X X X X X X X X X X X X X X X X X X X X X X X X X X X X X X X X X X X X X X X X X X X X X X X X X X X X s.3.1.1.1.1.1.1.1.1.1.1.1.1.1.1.1.1.1.1.1.1.1.1.1.1.1.1.1.1.1.1.1.1.1.1.1.",
"X X X X X X X X X X X X X X X X X X X X X X X X X X X X X X X X X X X X X X X X X X X X X X X X X X X X X X X X X X X h.1.1.1.1.1.1.1.1.1.1.1.1.1.1.1.1.1.1.1.1.1.1.1.1.1.1.1.1.1.1.1.1.1.1.1.1.",
"X X X X X X X X X X X X X X X X X X X X X X X X X X X X X X X X X X X X X X X X X X X X X X X X X X X X X X X X X ).t.3.1.1.1.1.1.1.1.1.1.1.1.1.1.1.1.1.1.1.1.1.1.1.1.1.1.1.1.1.1.1.1.1.1.1.1.1.",
"X X X X X X X X X X X X X X X X X X X X X X X X X X X X X X X X X X X X X X X X X X X X X X X X X X X X X X X X ).l.3.1.1.1.1.1.1.1.1.1.1.1.1.1.1.1.1.1.1.1.1.1.1.1.1.1.1.1.1.1.1.1.1.1.1.1.1.1.",
"X X X X X X X X X X X X X X X X X X X X X X X X X X X X X X X X X X X X X X X X X X X X X X X X X X X X X X X X 5.3.1.1.1.1.1.1.1.1.1.1.1.1.1.1.1.1.1.1.1.1.1.1.1.1.1.1.1.1.1.1.1.1.1.1.1.1.1.1.",
"X X X X X X X X X X X X X X X X X X X X X X X X X X X X X X X X X X X X X X X X X X X X X X X X X X X X X X X X 1.1.1.1.1.1.1.1.1.1.1.1.1.1.1.1.1.1.1.1.1.1.1.1.1.1.1.1.1.1.1.1.1.1.1.1.1.1.1.1.",
"X X X X X X X X X X X X X X X X X X X X X X X X X X X X X X X X X X X X X X X X X X X X X X X X X X X X X X ).m.1.1.1.1.1.1.1.1.1.1.1.1.1.1.1.1.1.1.1.1.1.1.1.1.1.1.1.1.1.1.1.1.1.1.1.1.1.1.1.1.",
"X X X X X X X X X X X X X X X X X X X X X X X X X X X X X X X X X X X X X X X X X X X X X X X X X X X X X ).4.3.1.1.1.1.1.1.1.1.1.1.1.1.1.1.1.1.1.1.1.1.1.1.1.1.1.1.1.1.1.1.1.1.1.1.1.1.1.1.1.1.",
"X X X X X X X X X X X X X X X X X X X X X X X X X X X X X X X X X X X X X X X X X X X X X X X X X X X X X u.3.1.1.1.1.1.1.1.1.1.1.1.1.1.1.1.1.1.1.1.1.1.1.1.1.1.1.1.1.1.1.1.1.1.1.1.1.1.1.1.1.1.",
"X X X X X X X X X X X X X X X X X X X X X X X X X X X X X X X X X X X X X X X X X X X X X X X X X X X X X 1.1.1.1.1.1.1.1.1.1.1.1.1.1.1.1.1.1.1.1.1.1.1.1.1.1.1.1.1.1.1.1.1.1.1.1.1.1.1.1.1.1.1.",
"X X X X X X X X X X X X X X X X X X X X X X X X X X X X X X X X X X X X X X X X X X X X X X X X X X X X ).1.1.1.1.1.1.1.1.1.1.1.1.1.1.1.1.1.1.1.1.1.1.1.1.1.1.1.1.1.1.1.1.1.1.1.1.1.1.1.1.1.1.1.",
"X X X X X X X X X X X X X X X X X X X X X X X X X X X X X X X X X X X X X X X X X X X X X X X X X X X ).9.1.1.1.1.1.1.1.1.1.1.1.1.1.1.1.1.1.1.1.1.1.1.1.1.1.1.1.1.1.1.1.1.1.1.1.1.1.1.1.1.1.1.1.",
"X X X X X X X X X X X X X X X X X X X X X X X X X X X X X X X X X X X X X X X X X X X X X X X X X X ).o.3.1.1.1.1.1.1.1.1.1.1.1.1.1.1.1.1.1.1.1.1.1.1.1.1.1.1.1.1.1.1.1.1.1.1.1.1.1.1.1.1.1.1.1.",
"X X X X X X X X X X X X X X X X X X X X X X X X X X X X X X X X X X X X X X X X X X X X X X X X X X W v.1.1.1.1.1.1.1.1.1.1.1.1.1.1.1.1.1.1.1.1.1.1.1.1.1.1.1.1.1.1.1.1.1.1.1.1.1.1.1.1.1.1.1.1.",
"X X X X X X X X X X X X X X X X X X X X X X X X X X X X X X X X X X X X X X X X X X X X X X X X X ).w.1.1.1.1.1.1.1.1.1.1.1.1.1.1.1.1.1.1.1.1.1.1.1.1.1.1.1.1.1.1.1.1.1.1.1.1.1.1.1.1.1.1.1.1.1.",
"X X X X X X X X X X X X X X X X X X X X X X X X X X X X X X X X X X X X X X X X X X X X X X X X ).b.3.1.1.1.1.1.1.1.1.1.1.1.1.1.1.1.1.1.1.1.1.1.1.1.1.1.1.1.1.1.1.1.1.1.1.1.1.1.1.1.1.1.1.1.1.1.",
"X X X X X X X X X X X X X X X X X X X X X X X X X X X X X X X X X X X X X X X X X X X X X X X ).0.3.1.1.1.1.1.1.1.1.1.1.1.1.1.1.1.1.1.1.1.1.1.1.1.1.1.1.1.1.1.1.1.1.1.1.1.1.1.1.1.1.1.1.1.1.1.1.",
"X X X X X X X X X X X X X X X X X X X X X X X X X X X X X X X X X X X X X X X X X X X X X X X W 3.1.1.1.1.1.1.1.1.1.1.1.1.1.1.1.1.1.1.1.1.1.1.1.1.1.1.1.1.1.1.1.1.1.1.1.1.1.1.1.1.1.1.1.1.1.1.1.",
"X X X X X X X X X X X X X X X X X X X X X X X X X X X X X X X X X X X x.Z ~ ~ ~ ~ ~ ~ ~ ~ ~ ~ ~ ~ ~ ~ ~ ~ ~ ~ ~ ~ ~ ~ ~ ~ ~ ~ ~ ~ ~ ~ ~ ~ ~ ~ ~ ~ ~ ~ ~ ~ ~ ~ ~ ~ ~ ~ ~ ~ ~ ~ ~ ~ y.1.1.1.1.1.1.",
"X X X X X X X X X X X X X X X X X X X X X X X X X X X X X X X X X X X x.Z ~ ~ ~ ~ ~ ~ ~ ~ ~ ~ ~ ~ ~ ~ ~ ~ ~ ~ ~ ~ ~ ~ ~ ~ ~ ~ ~ ~ ~ ~ ~ ~ ~ ~ ~ ~ ~ ~ ~ ~ ~ ~ ~ ~ ~ ~ ~ ~ ~ ~ ~ ~ y.1.1.1.1.1.1.",
"X X X X X X X X X X X X X X X X X X X X X X X X X X X X X X X X X X X x.Z ~ z.A.B.B.B.B.B.B.B.B.B.B.B.B.B.B.B.B.B.B.B.B.B.B.B.B.B.B.B.B.B.B.B.B.B.B.B.B.B.B.B.B.B.B.B.B.B.C.D.E./.E.1.1.1.1.1.1.",
"X X X X X X X X X X X X X X X X X X X X X X X X X X X X X X X X X X X x.T F.G.H.I.J.K.L.M.K.K.K.K.K.K.K.K.K.K.K.L.L.L.L.L.L.L.L.L.L.L.K.K.K.K.K.K.K.K.K.K.K.N.L.L.L.L.L.L.O.P.Q.R.g 1.1.1.1.1.1.",
"X X X X X X X X X X X X X X X X X X X X X X X X X X X X X X X X X X X x.S.T.U.V.W.X.X.Y.Z.Z.Z.Z.Z.Z.Z.Z.Z.`. +.+X.X.X.X.X.X.X.X.X.X.++Y.V.Z.Z.Z.Z.Z.Z.Z.`.@+#+++X.X.X.X.X.$+X.%+&+g 1.1.1.1.1.h.",
"X X X X X X X X X X X X X X X X X X X X X X X X X X X X X X X X X X X x.*+=+-+Y.;+>+,+'+)+!+!+!+!+!+!+!+~+{+]+^+/+(+(+(+(+(+(+(+(+/+_+ +:+~+!+!+!+!+!+!+!+{+<+[+(+(+(+(+(+}+|+%+&+g 1.1.1.1.e.1+",
"X X X X X X X X X X X X X X X X X X X X X X X X X X X X X X X X X X X x.*+2+3+4+>+5+6+7+8+9+9+9+9+9+9+9+9+0+a+b+c+d+d+d+d+d+d+d+d+e+f+g+h+9+9+9+9+9+9+9+i+h+j+(+d+d+d+d+d+/+k+%+&+g 1.1.1.h.l+m+",
"X X X X X X X X X X X X X X X X X X X X X X X X X X X X X X X X X X X x.*+=+3+4+>+n+`.o+b p+p+p+p+p+p+p+p+b q+X.c+d+d+d+d+d+d+d+d+r+,+)+p+s+p+p+p+p+p+p+t+u+v+(+d+d+d+d+d+w+x+%+&+g 1.1.1.y+z+A+",
"X X X X X X X X X X X X X X X X X X X X X X X X X X X X X X X X X X X x.*+=+3+4+>+B+_+C+a+D+D+D+D+D+D+E+F+D+G+/+c+d+d+d+d+d+d+d+d+c+H+g+I+F+F+D+D+D+D+D+F+D+J+(+d+d+d+d+d+w+x+%+&+g 1.1.h.K+A+A+",
"X X X X X X X X X X X X X X X X X X X X X X X X X X X X X X X X X X X x.*+=+3+4+>+d+d+/+5+L+L+L+L+M+M+N+M+L+O+/+P+d+d+d+d+d+d+d+d+d+b+/+n+L+L+L+L+M+>+N+M+5+n+d+d+d+d+d+d+w+x+%+&+g 1.e.Q+z+A+A+",
"X X X X X X X X X X X X X X X X X X X X X X X X X X X X X X X X X X X x.*+=+3+4+>+b+R+d+e+S+S+S+X.e+T+U+e+X.c+d+d+d+d+d+d+d+d+d+d+d+d+c+S+S+S+S+X.S+V+e+e+X.c+d+d+d+d+d+d+w+x+%+&+g h.W+z+A+A+A+",
"X X X X X X X X X X X X X X X X X X X X X X X X X X X X X X X X X X X x.*+=+3+4+>+d+d+d+d+/+d+c+S+X+Y+Z+`+#+ @c+d+d+d+d+d+d+d+d+d+d+d+d+d+d+.@c++@@@#@$@%@&@X.c+d+d+d+d+d+w+x+%+&+g *@z+A+A+A+A+",
"X X X X X X X X X X X X X X X X X X X X X X X X X X X X X X X X X X X x.*+=+3+4+>+d+d+d+d+/+=@-@;@>@,@'@)@!@~@{@]@/+d+d+d+d+d+d+d+d+d+d+d+^@/@(@;@>@_@:@<@!@[@}@c+d+d+d+d+w+x+%+&+g A+A+A+A+A+A+",
"X X X X X X X X X X X X X X X X X X X X X X X X X X X X X X X X X X X x.*+=+3+4+>+d+d+/+d+|@1@2@E.3@#.4@5@E.6@7@8@e+/+d+d+d+d+d+d+d+d+d+/+@+9@0@E.~  .F a@b@6@_@c@X.d+d+d+w+x+%+&+H z+A+A+A+A+A+",
"X X X X X X X X X X X X X X X X X X X X X X X X X X X X X X X X X X X x.*+=+3+4+>+d+d+d+_+d@e@~ ~ ~ _ _ ~ ~ &+3@f@g@^@/+d+d+d+d+d+d+d+(+h@i@6@~ ~ ~ _ j@~ g k@l@m@n@ @(+d+w+x+%+&+H A+A+A+A+A+A+",
"X X X X X X X X X X X X X X X X X X X X X X X X X X X X X X X X X X X x.*+=+3+4+>+c+(+o@p@5@*.~ ~ ~ ~ ~ ~ ~ ~ ~ g q@r@o@/+d+d+d+d+d+d+Y.s@t@~ ~ ~ ~ /./.u@v@w@[ *.x@y@/+/+/+x+%+&+H A+A+A+A+A+A+",
"X X X X X X X X X X X X X X X X X X X X X X X X X X X X X X X X X X X x.*+=+3+4+>+/+.@z@A@~ ~ ~ ~ ~ ~ ~ ~ ~ ~ ~ ~ M B@C@d+/+d+d+d+/+d+D@E@~ ~ ~ ~ ~ N F@G@H@I@'././ J@K@L@.@x+%+&+H A+A+A+A+A+A+",
"X X X X X X X X X X X X X X X X X X X X X X X X X X X X X X X X X ).6.x.*+=+3+4+>+n+M@Z+N@~ ~ ~ ~ ~ ~ ~ ~ ~ ~ ~ ~ H O@P@c+/+d+d+d+d+&@Q@t@*.~ ~ ~ ~ ~ /.C.R@S@g ~ ] T@U@>+.@x+%+&+H A+A+A+A+A+A+",
"X X X X X X X X X X X X X X X X X X X X X X X X X X X X X X X X ).9.3.x.*+=+3+4+>+n+Y.V@T ~ 2 & N ~ ~ ~ ~ ~ ~ ~ ~ _ W@X@X./+d+d+d+d+Y@Z@~ ~ ~ ~ ~ ~ ~ ~ Z _ _ ~ ~ T `@ #.#}+k+%+&+H A+A+A+A+A+A+",
"X X X X X X X X X X X X X X X X X X X X X X X X X X X X X X X ).o.3.1.x.*+=+3+4+>+n++#@###~ $#%#[ /.~ ~ ~ ~ ~ ~ ~ ~ &#*#e+5+>+5+B+^@=#-#_ ~ ~ ~ ~ ~ ~ ~ ~ ~ ~ ~ ~ Z ;#>#,#'#k+%+&+H A+A+A+A+A+A+",
"X X X X X X X X X X X X X X X X X X X X X X X X X X X X X X X W 1.1.1.x.*+=+3+4+>+n+)#!#&+g ~#{#]#E.N ~ ~ ~ ~ ~ ~ _ ^#/#S+(#_#:#6+>+/@Z@~ ~ ~ ~ ~ ~ ~ ~ ~ ~ ~ ~ ~ /.<#[#}#}+k+%+&+H A+A+A+A+A+A+",
"X X X X X X X X X X X X X X X X X X X X X X X X X X X X X X ).w.1.1.1.x.*+=+3+4+>+n+|#1#2#R 3#4#5#~ /.~ ~ ~ ~ ~ ~ g 6#7#)#8#9#0#a#L@b#c#e@~ ~ ~ ~ ~ ~ ~ ~ ~ ~ ~ ~ d#e#f#5+/+x+%+&+H A+A+A+A+A+A+",
"X X X X X X X X X X X X X X X X X X X X X X X X X X X X X ).b.3.1.1.1.x.*+=+3+4+>+/+d+X+g#Z [ !.H ~ ~ ~ ~ ~ ~ ~ /.M h#i#Y.j#k#l#m#n#X.o#p#~ ~ ~ ~ ~ ~ ~ ~ ~ ~ ~ /.H q#r#n#.@x+%+&+H A+A+A+A+A+A+",
"X X X X X X X X X X X X X X X X X X X X X X X X X X X X ).0.3.1.1.1.1.x.*+=+3+4+>+c+n+d+ #s#2 & N ~ ~ ~ ~ ~ ~ ~ | t#u#o@V+v#w#x#y#z#d+Y.A#B#~ ~ ~ ~ ~ ~ ~ ~ ~ ~ j@C#D#E#(+/+x+%+&+H A+A+A+A+A+A+",
"X X X X X X X X X X X X X X X X X X X X X X X X X X X X W 3.1.1.1.1.1.x.*+=+3+4+>+d+d+d+F#G#H ~ ~ ~ /.Z Z ~ ~ g H#I#J#n+K#L#7+M#N#O#d+d+P#Q#R#~ ~ ~ /.Z ~ ~ ~ /.S#T#U#L+c+w+x+%+&+H A+A+A+A+A+A+",
"X X X X X X X X X X X X X X X X X X X X X X X X X X X ).a.1.1.1.1.1.1.x.*+=+3+4+>+d+d+/+P+y@V#W#X#Y#~ ~ Z R V m@Z#`#5+(+_+ $`.`#.$>+d+d+(+$@+$@$#$b@$$~ ~ z.%$&$I#*$/+d+d+w+x+%+&+H A+A+A+A+A+A+",
"X X X X X X X X X X X X X X X X X X X X X X X X X X ).p.3.1.1.1.1.1.1.x.*+=+3+4+>+d+d+d+/+n+=$-$O@;$>$,$'$)$!$~$K@O#d+/+#+{$]$^$/$>+d+d+(+($_$:$<$[$}$,$|$)$1$2$3$(+/+d+d+w+x+%+&+H A+A+A+A+A+A+",
"X X X X X X X X X X X X X X X X X X X X X X X X X ).q.3.1.1.1.1.1.1.1.x.*+=+3+4+>+d+d+d+d+d+4$5$f#6$T#-+7$8$C@9$>+d+d+/+0$f#a#a#N#>+d+d+d+n+a$b$c$2$-+d$e$r@f$n+(+d+d+d+d+w+x+%+&+H A+A+A+A+A+A+",
"X X X X X X X X X X X X X X X X X X X X X X X X X g.3.1.1.1.1.1.1.1.1.x.*+=+3+4+>+d+d+d+d+d+d+B+>+g$h$h$i$j$n+/+d+d+d+/+_+k$a#a#N#>+d+d+d+d+d+/+>+l$h$h$g$4$n+d+d+d+d+d+d+w+x+%+&+H A+A+A+A+A+A+",
"X X X X X X X X X X X X X X X X X X X X X X X X X h.1.1.1.1.1.1.1.1.1.x.*+=+3+4+>+d+d+d+d+d+d+d+d+d+d+d+d+d+d+d+d+d+d+/+_+m$n$N#N#>+d+d+d+d+d+d+d+d+d+d+d+d+d+d+d+d+d+d+d+w+x+%+&+H A+A+A+A+A+A+",
"X X X X X X X X X X X X X X X X X X X X X X X X ).3.1.1.1.1.1.1.1.1.1.x.*+=+3+4+>+d+d+d+d+d+d+d+d+d+d+d+d+d+d+d+d+d+d+/+#+^$y@o$p$O#d+d+d+d+d+d+d+d+d+d+d+d+d+d+d+d+d+d+d+w+x+%+&+H A+A+A+A+A+A+",
"X X X X X X X X X X X X X X X X X X X X X X X ).r.1.1.1.1.1.1.1.1.1.1.x.*+=+3+4+>+d+d+d+d+d+d+d+d+d+d+d+d+d+d+d+d+d+d+/+U+q$r$s$t$O#d+d+d+d+d+d+d+d+d+d+d+d+d+d+d+d+d+d+d+w+x+%+&+H A+A+A+A+A+A+",
"X X X X X X X X X X X X X X X X X X X X X X X g.3.1.1.1.1.1.1.1.1.1.1.x.*+=+3+4+>+d+d+d+d+d+d+d+d+d+d+d+d+d+d+d+d+d+d+(+5$u$v$w$t$4$d+d+d+d+d+d+d+d+d+d+d+d+d+d+d+d+d+d+d+w+x+%+&+H A+A+A+A+A+A+",
"X X X X X X X X X X X X X X X X X X X X X X ).h.1.1.1.1.1.1.1.1.1.1.1.x.*+=+3+4+>+d+d+d+d+d+d+d+d+d+d+d+d+d+d+d+d+d+d+(+5$x$y$x$o$g$d+d+d+d+d+d+d+d+d+d+d+d+d+d+d+d+d+d+d+w+x+%+&+H A+A+A+A+A+A+",
"X X X X X X X X X X X X X X X X X X X X X ).t.3.1.1.1.1.1.1.1.1.1.1.1.x.*+=+3+4+>+d+d+d+d+d+d+d+d+d+d+d+d+d+d+d+d+d+d+/+X.f#z$]$,+L+d+d+d+d+d+d+d+d+d+d+d+d+d+d+d+d+d+d+d+w+x+%+&+H A+A+A+A+A+A+",
"X X X X X X X X X X X X X X X X X X X X ).l.3.1.1.1.1.1.1.1.1.1.1.1.1.x.*+=+3+4+>+d+d+d+d+d+d+d+d+d+d+d+d+d+d+d+d+d+d+d+d+d+d+d+d+d+d+d+d+d+d+d+d+d+d+d+d+d+d+d+d+d+d+d+d+w+x+%+&+H A+A+A+A+A+A+",
"X X X X X X X X X X X X X X X X X X X X |.3.1.1.1.1.1.1.1.1.1.1.1.1.1.x.*+=+3+4+>+d+d+d+d+d+d+d+d+d+d+d+d+d+d+d+d+d+d+d+d+d+/+d+d+d+d+d+d+d+d+d+d+d+d+d+d+d+d+d+d+d+d+d+d+w+x+%+&+H A+A+A+A+A+A+",
"X X X X X X X X X X X X X X X X X X X X 1.1.1.1.1.1.1.1.1.1.1.1.1.1.1.x.*+2+3+4+>+d+d+d+d+d+d+d+d+d+d+d+d+d+d+d+d+d+d+d+d+d+d+d+d+d+d+d+d+d+d+d+d+d+d+d+d+d+d+d+d+d+d+d+d+A$k+%+&+H A+A+A+A+A+A+",
"X X X X X X X X X X X X X X X X X X ).2.v.1.1.1.1.1.1.1.1.1.1.1.1.1.1.x.S.=+B$J#C$/+/+/+/+/+/+/+/+/+/+/+/+/+/+/+/+/+/+/+/+/+/+/+/+/+/+/+/+/+/+/+/+/+/+/+/+/+/+/+/+/+/+/+/+W./+D$&+H A+A+A+A+A+A+",
"X X X X X X X X X X X X X X X X X ).4.3.1.1.1.1.1.1.1.1.1.1.1.1.1.1.1.x.S.R#E$F$G$H$I$I$I$I$I$I$I$I$I$I$I$I$I$I$I$I$I$I$I$I$I$I$I$I$I$I$I$I$I$I$I$I$I$I$I$I$I$I$I$I$I$I$J$K$I$L$&+H A+A+A+A+A+A+",
"X X X X X X X X X X X X X X X X X u.3.1.1.1.1.1.1.1.1.1.1.1.1.1.1.1.1.x.Z /.N@M$N$N$N$N$N$N$N$N$N$N$N$N$N$N$N$N$N$N$N$N$N$N$N$N$N$N$N$N$N$N$N$N$N$N$N$N$N$N$N$N$N$N$N$N$N$O$N$P$Z H A+A+A+A+A+A+",
"X X X X X X X X X X X X X X X X X 1.1.1.1.1.1.1.1.1.1.1.1.1.1.1.1.1.1.x.Z ~ *._ _ _ _ _ _ _ _ _ _ _ _ _ _ _ _ _ _ _ _ _ _ _ _ _ _ _ _ _ _ _ _ _ _ _ _ _ _ _ _ _ _ _ _ _ _ _ _ _ ~ z.A+A+A+A+A+A+",
"X X X X X X X X X X X X X X X ).6.1.1.1.1.1.1.1.1.1.1.1.1.1.1.1.1.1.1.x.Z ~ ~ ~ ~ ~ ~ ~ ~ ~ ~ ~ ~ ~ ~ ~ ~ ~ ~ ~ ~ ~ ~ ~ ~ ~ ~ ~ ~ ~ ~ ~ ~ ~ ~ ~ ~ ~ ~ ~ ~ ~ ~ ~ ~ ~ ~ ~ ~ ~ ~ ~ ~ F.A+A+A+A+A+A+",
"X X X X X X X X X X X X X X ).9.3.1.1.1.1.1.1.1.1.1.1.1.1.1.1.1.1.1.1.x.Z ~ ~ ~ ~ ~ ~ ~ ~ ~ ~ ~ ~ ~ ~ ~ ~ ~ ~ ~ ~ ~ ~ ~ ~ ~ ~ ~ ~ ~ ~ ~ ~ ~ ~ ~ ~ ~ ~ ~ ~ ~ ~ ~ ~ ~ ~ ~ ~ ~ ~ ~ ~ F.A+A+A+A+A+A+",
"X X X X X X X X X X X X X ).7.3.1.1.1.1.1.1.1.1.1.1.1.1.1.1.1.1.1.1.1.x.Z ~ ~ ~ ~ ~ ~ ~ ~ ~ ~ ~ ~ ~ ~ ~ ~ ~ ~ ~ ~ ~ ~ ~ ~ ~ ~ ~ ~ ~ ~ ~ ~ ~ ~ ~ ~ ~ ~ ~ ~ ~ ~ ~ ~ ~ ~ ~ ~ ~ ~ ~ ~ F.A+A+A+A+A+A+",
"X X X X X X X X X X X X X ^.1.1.1.1.1.1.1.1.1.1.1.1.1.1.1.1.1.1.1.1.1.x.Z ~ ~ ~ ~ ~ ~ ~ ~ ~ ~ ~ ~ /./.~ ~ ~ ~ ~ ~ ~ ~ ~ ~ ~ ~ ~ ~ ~ ~ ~ ~ ~ ~ ~ /.< P F < ~ ~ ~ ~ ~ ~ ~ ~ ~ ~ ~ ~ F.A+A+A+A+A+A+",
"X X X X X X X X X X X X ).8.1.1.1.1.1.1.1.1.1.1.1.1.1.1.1.1.1.1.1.1.1.x.Z ~ ~ ~ ~ ~ ~ ~ ~ ~ ~ ~ ~ X#E./.~ ~ ~ ~ ~ ~ ~ ~ ~ ~ ~ ~ ~ ~ ~ ~ ~ N #.< H !.o.g.U ~ Z ~ ~ ~ ~ ~ ~ ~ ~ ~ ~ F.A+A+A+A+A+A+",
"X X X X X X X X X X X ).Q$3.1.1.1.1.1.1.1.1.1.1.1.1.1.1.1.1.1.1.1.1.1.x.Z ~ ~ ~ ~ ~ ~ ~ ~ ~ ~ /.#.R$S$>.& /.~ ~ ~ ~ ~ ~ ~ ~ ~ ~ ~ Y#F@& , M T$w.U$V$W$X$Y$Z$P ~ ~ ~ ~ ~ ~ ~ ~ ~ ~ F.A+A+A+A+A+A+",
"X X X X X X X X X X ).0.3.1.1.1.1.1.1.1.1.1.1.1.1.1.1.1.1.1.1.1.1.1.1.x.Z ~ ~ ~ ~ ~ ~ ~ ~ ~ ~ ~ 2#l+`$ %.%+% .~ ~ ~ ~ ~ ~ ~ Y#~ 2 * P =.@%#%$%%%&%*%=%-%;%>%8 ~ ~ ~ ~ ~ ~ ~ ~ ~ ~ F.A+A+A+A+A+A+",
"X X X X X X X X X X W 3.1.1.1.1.1.1.1.1.1.1.1.1.1.1.1.1.1.1.1.1.1.1.1.x.Z ~ ~ ~ ~ ~ ~ ~ ~ ~ ~ ~ T Z ,%'%)%!%[ * 9  .~%/.~ 2 ' * = c.{%]%^%/%(%_%:%<%I+[%}%|%G ~ ~ ~ ~ ~ ~ ~ ~ ~ ~ F.A+A+A+A+A+A+",
"X X X X X X X X X ).a.1.1.1.1.1.1.1.1.1.1.1.1.1.1.1.1.1.1.1.1.1.1.1.1.x.Z ~ ~ ~ ~ ~ ~ ~ ~ ~ ~ ~ ~ F g 1%2%3%4%5%^.X#< & 6%_ 7%8%9%0%a%b%[%c%d%e%f%g%h%i%j%@. .~ ~ ~ ~ ~ ~ ~ ~ ~ ~ F.A+A+A+A+A+A+",
"X X X X X X X X ).k%3.1.1.1.1.1.1.1.1.1.1.1.1.1.1.1.1.1.1.1.1.1.1.1.1.x.Z ~ ~ ~ ~ ~ ~ ~ ~ ~ ~ ~ ~ ~ < < _.l%m%n%o%p%q%r%s%t%u%v%w%(%d%x%y%p+z%A%B%C%D%E%F%] Z ~ ~ ~ ~ ~ ~ ~ ~ ~ ~ F.A+A+A+A+A+A+",
"X X X X X X X ).q.3.1.1.1.1.1.1.1.1.1.1.1.1.1.1.1.1.1.1.1.1.1.1.1.1.1.x.Z ~ ~ ~ ~ ~ ~ ~ ~ ~ ~ ~ ~ ~ ~ <  ._ G%H%I%J%K%L%M%N%O%P%Q%R%S%T%U%V%W%X%Y%Z%`%].2 /.~ ~ ~ ~ ~ ~ ~ ~ ~ ~ ~ F.A+A+A+A+A+A+",
"X X X X X X X d.3.1.1.1.1.1.1.1.1.1.1.1.1.1.1.1.1.1.1.1.1.1.1.1.1.1.1.x.Z ~ ~ ~ ~ ~ ~ ~ ~ ~ ~ ~ ~ ~ ~ ~ ~ < P g  &.&+&@&#&$&%&&&*&=&-&;&>&,&'&)&!&|./.~&N ~ ~ ~ ~ ~ ~ ~ ~ ~ ~ ~ ~ F.A+A+A+A+A+A+",
"X X X X X X ).e.1.1.1.1.1.1.1.1.1.1.1.1.1.1.1.1.1.1.1.1.1.1.1.1.1.1.1.x.Z ~ ~ ~ ~ ~ ~ ~ ~ ~ ~ ~ ~ ~ ~ ~ ~ ~ ~ <  .R k.{&]&^&/&4.4.r.u.(&_&d.X >.=+:&#.~ Y#~ ~ ~ ~ ~ ~ ~ ~ ~ ~ ~ ~ F.A+A+A+A+A+A+",
"X X X X X ).<&3.1.1.1.1.1.1.1.1.1.1.1.1.1.1.1.1.1.1.1.1.1.1.1.1.1.1.1.x.Z ~ ~ ~ ~ ~ ~ ~ ~ ~ ~ ~ ~ ~ ~ ~ ~ ~ ~ ~ /.< < ~ _ | g H [&| _ ~ ~ /.< #.2 ~ }&~ ~ ~ ~ ~ ~ ~ ~ ~ ~ ~ ~ ~ ~ F.A+A+A+A+A+A+",
"X X X X X r.3.1.1.1.1.1.1.1.1.1.1.1.1.1.1.1.1.1.1.1.1.1.1.1.1.1.1.1.1.x.Z ~ ~ ~ ~ ~ ~ ~ ~ ~ ~ ~ ~ ~ ~ ~ ~ ~ ~ ~ ~ ~ ~ ~ Z /././././././.~ ~ ~ ~ ~ ~ ~ ~ ~ ~ ~ ~ ~ ~ ~ ~ ~ ~ ~ ~ ~ F.A+A+A+A+A+A+",
"X X X X X 3.1.1.1.1.1.1.1.1.1.1.1.1.1.1.1.1.1.1.1.1.1.1.1.1.1.1.1.1.1.x.Z ~ ~ ~ ~ ~ ~ ~ ~ ~ ~ ~ ~ ~ ~ ~ ~ ~ ~ ~ ~ ~ ~ ~ ~ ~ ~ ~ ~ ~ ~ ~ ~ ~ ~ ~ ~ ~ ~ ~ ~ ~ ~ ~ ~ ~ ~ ~ ~ ~ ~ ~ ~ F.A+A+A+A+A+A+",
"X X X X ).1.1.1.1.1.1.1.1.1.1.1.1.1.1.1.1.1.1.1.1.1.1.1.1.1.1.1.1.1.1.x.Z ~ ~ ~ ~ ~ ~ ~ ~ ~ ~ ~ ~ ~ ~ ~ ~ ~ ~ ~ ~ ~ ~ ~ ~ ~ ~ ~ ~ ~ ~ ~ ~ ~ ~ ~ ~ ~ ~ ~ ~ ~ ~ ~ ~ ~ ~ ~ ~ ~ ~ ~ ~ F.A+A+A+A+A+A+",
"X X X ).i.1.1.1.1.1.1.1.1.1.1.1.1.1.1.1.1.1.1.1.1.1.1.1.1.1.1.1.1.1.1.|&*._ _ _ _ _ _ _ _ _ _ _ _ _ _ _ _ _ _ _ _ _ _ _ _ _ _ _ _ _ _ _ _ _ _ _ _ _ _ _ _ _ _ _ _ _ _ _ _ _ _ _ &+b@A+A+A+A+A+A+",
"X X ).l.3.1.1.1.1.1.1.1.1.1.1.1.1.1.1.1.1.1.1.1.1.1.1.1.1.1.1.1.1.1.1.1.1.1.1.1.1.1.1.1.1.1.1.1.1.1.1.1.1.1.1.1.1.h.1%m+A+A+A+A+A+A+A+A+A+A+A+A+A+A+A+A+A+A+A+A+A+A+A+A+A+A+A+A+A+A+A+A+A+A+A+A+",
"X X |.3.1.1.1.1.1.1.1.1.1.1.1.1.1.1.1.1.1.1.1.1.1.1.1.1.1.1.1.1.1.1.1.1.1.1.1.1.1.1.1.1.1.1.1.1.1.1.1.1.1.1.1.1.1.y+z+A+A+A+A+A+A+A+A+A+A+A+A+A+A+A+A+A+A+A+A+A+A+A+A+A+A+A+A+A+A+A+A+A+A+A+A+A+",
"X X 1.1.1.1.1.1.1.1.1.1.1.1.1.1.1.1.1.1.1.1.1.1.1.1.1.1.1.1.1.1.1.1.1.1.1.1.1.1.1.1.1.1.1.1.1.1.1.1.1.1.1.1.1.1.1.A+A+A+A+A+A+A+A+A+A+A+A+A+A+A+A+A+A+A+A+A+A+A+A+A+A+A+A+A+A+A+A+A+A+A+A+A+A+A+",
").2.3.1.1.1.1.1.1.1.1.1.1.1.1.1.1.1.1.1.1.1.1.1.1.1.1.1.1.1.1.1.1.1.1.1.1.1.1.1.1.1.1.1.1.1.1.1.1.1.1.1.1.1.1.e.1&z+A+A+A+A+A+A+A+A+A+A+A+A+A+A+A+A+A+A+A+A+A+A+A+A+A+A+A+A+A+A+A+A+A+A+A+A+A+A+",
"4.3.1.1.1.1.1.1.1.1.1.1.1.1.1.1.1.1.1.1.1.1.1.1.1.1.1.1.1.1.1.1.1.1.1.1.1.1.1.1.1.1.1.1.1.1.1.1.1.1.1.1.1.1.1.2&z+A+A+A+A+A+A+A+A+A+A+A+A+A+A+A+A+A+A+A+A+A+A+A+A+A+A+A+A+A+A+A+A+A+A+A+A+A+A+A+",
"3&t#t#t#t#t#t#t#t#t#t#t#t#t#t#t#t#t#t#t#t#t#t#t#t#t#t#t#t#t#t#t#t#t#t#t#t#t#t#t#t#t#t#t#t#t#t#t#t#t#t#t#t#t#t#4&5&5&5&5&5&5&5&5&5&5&5&5&5&5&5&5&5&5&5&5&5&5&5&5&5&5&5&5&5&5&5&5&5&5&5&5&5&5&5&5&"};
