/* XPM */
static char * zoomin_xpm[] = {
"17 17 6 1",
" 	c None",
".	c #000000",
"+	c #949194",
"@	c #DEDADE",
"#	c #FFFFFF",
"$	c #0000C3",
"                 ",
"        ....     ",
"      +.@   .+   ",
"      .##++  .+  ",
"     .@#+    @.  ",
"     . +      .+ ",
"     .        .+ ",
"     .@      @.+ ",
"      .      .++ ",
"     ...@  @$$+  ",
"    ...+....$$   ",
"   ...++ +++$$   ",
"  ...++  $$$$$$$$",
" ...++   $$$$$$$$",
"...++       $$   ",
"+.++        $$   ",
" ++         $$   "};
