/* XPM */
static char * cut_xpm[] = {
"9 14 3 1",
" 	c None",
".	c #000000",
"+	c #000083",
"  .   .  ",
"  .   .  ",
"  .   .  ",
"  .. ..  ",
"   . .   ",
"   ...   ",
"    .    ",
"   +.+   ",
"   + +++ ",
" +++ +  +",
"+  + +  +",
"+  + +  +",
"+  +  ++ ",
" ++      "};
