/* XPM */
static char * ramp_decl_xpm[] = {
"80 60 5 1",
" 	c None",
".	c #FFFFFF",
"+	c #000000",
"@	c #0252FF",
"#	c #3DCE47",
"                                                                                ",
"                                                                                ",
"                                                                                ",
"                                                                                ",
"                                                                                ",
"                                                                                ",
"                                                                                ",
"                                                               ...   ..   ..    ",
"                                                                  . . .. . ..   ",
"                                                                ..  .. . .. .   ",
"                                                               .    .  . .  .   ",
"                                                               ....  ..   ..    ",
"                 +++++++++@@@@@@@@@@@@@@@@@@@@@@@@+++++++++++                   ",
" ............................................................................   ",
"                 +++++++++@@@@@@@@@@@@@@@@@@@@@@@@+++++++++++                   ",
"                 +++++++++@@@@@@@@@@@@@@@@@@@@@@@@+++++++++++   .    ..   ..    ",
"                 +++++++++@@@@@@@@@@@@@@@@@@@@@@@@+++++++++++  ..   . .. . ..   ",
"                 +++++++++@@@@@@@@@@@@@@@@@@@@@@@@+++++++++++   .   .. . .. .   ",
"                 +++++++++@@@@@@@@@@@@@@@@@@@@@@@@+++++++++++   .   .  . .  .   ",
"                 +++++++++@@@@@@@@@@@@@@@@@@@@@@@@+++++++++++   .    ..   ..    ",
"                 +++++++++@@@@@@@@@@@@@@@@@@@@@@@@+++++++++++                   ",
" ............................................................................   ",
"                 +++++++++@@@@@@@#########@@@@@@@@+++++++++++                   ",
"                 +++++++++@@@@@###############@@@@+++++++++++             ..    ",
"                 +++++++++@@@@#################@@@####+++++++            . ..   ",
"                 +++++++#####################################            .. .   ",
"                 +++#########################################            .  .   ",
"                 ############################################             ..    ",
"                #############################################                   ",
" .............................................................................  ",
"                #############################################                   ",
"                 +###########################################                   ",
"                 +++###########################@@@###########                   ",
"                 +++++++#####################@@@@@+++++++++++                   ",
"                 +++++++++@@@###############@@@@@@+++++++++++                   ",
"                 +++++++++@@@@@@@@@@@@@@@@@@@@@@@@+++++++++++                   ",
"                 +++++++++@@@@@@@@@@@@@@@@@@@@@@@@+++++++++++                   ",
" ............................................................................   ",
"                 +++++++++@@@@@@@@@@@@@@@@@@@@@@@@+++++++++++                   ",
"                 +++++++++@@@@@@@@@@@@@@@@@@@@@@@@+++++++++++                   ",
"                 +++++++++@@@@@@@@@@@@@@@@@@@@@@@@+++++++++++                   ",
"                 +++++++++@@@@@@@@@@@@@@@@@@@@@@@@+++++++++++                   ",
"                 +++++++++@@@@@@@@@@@@@@@@@@@@@@@@+++++++++++                   ",
"                 +++++++++@@@@@@@@@@@@@@@@@@@@@@@@+++++++++++                   ",
"                 +++++++++@@@@@@@@@@@@@@@@@@@@@@@@+++++++++++                   ",
" ............................................................................   ",
"                 +++++++++@@@@@@@@@@@@@@@@@@@@@@@@+++++++++++                   ",
"                                                                                ",
"                                                                                ",
"                                                                                ",
"                                                                                ",
"                                                                                ",
"                                                                                ",
"                                                                                ",
"                                                                                ",
"                                                                                ",
"                                                                                ",
"                                                                                ",
"                                                                                ",
"                                                                                "};
