/* XPM */
static char * scale_235_xpm[] = {
"235 30 258 2",
"  	c None",
". 	c #000000",
"+ 	c #FF0025",
"@ 	c #FB0424",
"# 	c #F50A23",
"$ 	c #EF1022",
"% 	c #E91621",
"& 	c #E31C20",
"* 	c #DD2220",
"= 	c #D7281F",
"- 	c #D12E1E",
"; 	c #CB341D",
"> 	c #C53A1C",
", 	c #BF401B",
"' 	c #BA451A",
") 	c #B44B1A",
"! 	c #AE5119",
"~ 	c #A25D17",
"{ 	c #9C6316",
"] 	c #966915",
"^ 	c #906F14",
"/ 	c #8A7514",
"( 	c #847B13",
"_ 	c #7E8112",
": 	c #788711",
"< 	c #728D10",
"[ 	c #6C930F",
"} 	c #66990E",
"| 	c #609F0D",
"1 	c #5AA50D",
"2 	c #54AB0C",
"3 	c #4EB10B",
"4 	c #48B70A",
"5 	c #42BD09",
"6 	c #3CC308",
"7 	c #36C907",
"8 	c #30CF06",
"9 	c #2AD506",
"0 	c #24DB05",
"a 	c #1EE104",
"b 	c #18E703",
"c 	c #12ED02",
"d 	c #0CF301",
"e 	c #06F900",
"f 	c #00FF00",
"g 	c #47B80A",
"h 	c #4DB20B",
"i 	c #53AC0C",
"j 	c #59A60C",
"k 	c #5FA00D",
"l 	c #659A0E",
"m 	c #6B940F",
"n 	c #718E10",
"o 	c #778811",
"p 	c #7D8212",
"q 	c #837C13",
"r 	c #897613",
"s 	c #8F7014",
"t 	c #956A15",
"u 	c #9A6516",
"v 	c #A05F17",
"w 	c #AC5318",
"x 	c #B24D19",
"y 	c #B8471A",
"z 	c #BE411B",
"A 	c #C43B1C",
"B 	c #CA351D",
"C 	c #D02F1E",
"D 	c #D6291F",
"E 	c #DC231F",
"F 	c #E21D20",
"G 	c #E71821",
"H 	c #ED1222",
"I 	c #F30C23",
"J 	c #F90624",
"K 	c #B9461A",
"L 	c #B34C19",
"M 	c #AD5219",
"N 	c #A15E17",
"O 	c #9B6416",
"P 	c #41BE09",
"Q 	c #3BC408",
"R 	c #35CA07",
"S 	c #2FD006",
"T 	c #29D605",
"U 	c #23DC05",
"V 	c #1DE204",
"W 	c #17E803",
"X 	c #11EE02",
"Y 	c #0BF401",
"Z 	c #05FA00",
"` 	c #8E7114",
" .	c #946B15",
"..	c #DB241F",
"+.	c #E11E20",
"@.	c #FA0524",
"#.	c #F40B23",
"$.	c #EE1122",
"%.	c #E81721",
"&.	c #887713",
"*.	c #827D12",
"=.	c #7C8311",
"-.	c #768911",
";.	c #708F10",
">.	c #6A950F",
",.	c #649B0E",
"'.	c #5EA10D",
").	c #58A70C",
"!.	c #52AD0B",
"~.	c #4CB30B",
"{.	c #46B90A",
"].	c #40BF09",
"^.	c #3AC508",
"/.	c #34CB07",
"(.	c #2ED106",
"_.	c #28D705",
":.	c #22DD04",
"<.	c #1CE304",
"[.	c #16E903",
"}.	c #10EF02",
"|.	c #0AF501",
"1.	c #04FB00",
"2.	c #CF301E",
"3.	c #D52A1E",
"4.	c #C9361D",
"5.	c #C33C1C",
"6.	c #BD421B",
"7.	c #B7481A",
"8.	c #B14E19",
"9.	c #AB5418",
"0.	c #9F6017",
"a.	c #996616",
"b.	c #936C15",
"c.	c #8D7214",
"d.	c #877813",
"e.	c #817E12",
"f.	c #A55A17",
"g.	c #7B8411",
"h.	c #758A10",
"i.	c #6F9010",
"j.	c #69960F",
"k.	c #639C0E",
"l.	c #5DA20D",
"m.	c #57A80C",
"n.	c #51AE0B",
"o.	c #4BB40A",
"p.	c #45BA0A",
"q.	c #3FC009",
"r.	c #39C608",
"s.	c #33CC07",
"t.	c #2DD206",
"u.	c #27D805",
"v.	c #21DE04",
"w.	c #1BE403",
"x.	c #15EA03",
"y.	c #0FF002",
"z.	c #09F601",
"A.	c #03FC00",
"B.	c #A65918",
"C.	c #FE0124",
"D.	c #F80723",
"E.	c #F20D23",
"F.	c #EC1322",
"G.	c #E61921",
"H.	c #E01F20",
"I.	c #DA251F",
"J.	c #D42B1E",
"K.	c #CE311D",
"L.	c #C8371D",
"M.	c #C23D1C",
"N.	c #BC431B",
"O.	c #B6491A",
"P.	c #B04F19",
"Q.	c #AA5518",
"R.	c #A45B17",
"S.	c #9E6116",
"T.	c #986716",
"U.	c #926D15",
"V.	c #8C7314",
"W.	c #867913",
"X.	c #807F12",
"Y.	c #7A8511",
"Z.	c #748B10",
"`.	c #6E910F",
" +	c #68970F",
".+	c #629D0E",
"++	c #5CA30D",
"@+	c #56A90C",
"#+	c #50AF0B",
"$+	c #4AB50A",
"%+	c #44BB09",
"&+	c #3EC108",
"*+	c #38C708",
"=+	c #32CD07",
"-+	c #2CD306",
";+	c #26D905",
">+	c #20DF04",
",+	c #1AE503",
"'+	c #14EB02",
")+	c #0EF102",
"!+	c #08F701",
"~+	c #02FD00",
"{+	c #FD0224",
"]+	c #F70823",
"^+	c #F10E22",
"/+	c #EB1422",
"(+	c #E51A21",
"_+	c #DF2020",
":+	c #D9261F",
"<+	c #D32C1E",
"[+	c #CD321D",
"}+	c #C7381C",
"|+	c #C13E1C",
"1+	c #BB441B",
"2+	c #B54A1A",
"3+	c #AF5019",
"4+	c #A95618",
"5+	c #A35C17",
"6+	c #9D6216",
"7+	c #976815",
"8+	c #916E15",
"9+	c #8B7414",
"0+	c #857A13",
"a+	c #7F8012",
"b+	c #798611",
"c+	c #738C10",
"d+	c #6D920F",
"e+	c #67980E",
"f+	c #619E0E",
"g+	c #5BA40D",
"h+	c #55AA0C",
"i+	c #4FB00B",
"j+	c #49B60A",
"k+	c #43BC09",
"l+	c #FC0324",
"m+	c #F60923",
"n+	c #F00F22",
"o+	c #EA1521",
"p+	c #E41B21",
"q+	c #DE2120",
"r+	c #D8271F",
"s+	c #D22D1E",
"t+	c #CC331D",
"u+	c #C6391C",
"v+	c #C03F1B",
"w+	c #3DC208",
"x+	c #37C807",
"y+	c #31CE07",
"z+	c #2BD406",
"A+	c #25DA05",
"B+	c #1FE004",
"C+	c #19E603",
"D+	c #13EC02",
"E+	c #0DF201",
"F+	c #07F801",
"G+	c #01FE00",
"H+	c #A85718",
"I+	c #A75818",
"                                                                                                                                                                                                                                                                                                                                                                                                                                                                                      ",
"                                                                                                                                                                                                                                                                                                                                                                                                                                                                                      ",
"                                                                                                                                                                                                                                                                                                                                                                                                                                                                                      ",
"                                                                                                                                                                                                                                                                                                                                                                                                                                                                                      ",
"                                                                                                                                                                                                                                                                                                                                                                                                                                                                                      ",
"                                                                                                                                                                                                                                                                                                                                                                                                                                                                                      ",
"                                                                                                                                                                                                                                                                                                                                                                                                                                                                                      ",
"                                                                                                                                                                                                                                                                                                                                                                                                                                                                                      ",
"                                                                                                                                                                                                                                                                                                                                                                                                                                                                                      ",
"                                                                                                                                                                                                                                                                                                                                                                                                                                                                                      ",
"                                          .                                                                                             .                                                                                                 .                                                                                             .                                                                                             .                                               ",
"                                          .                                                                                             .                                                                                                 .                                                                                             .                                                                                             .                                               ",
"                                          .                                                                                             .                                                                                                 .                                                                                             .                                                                                             .                                               ",
"                                          .                                                                                             .                                                                                                 .                                                                                             .                                                                                             .                                               ",
"                                          .                                                                                             .                                                                                                 .                                                                                             .                                                                                             .                                               ",
"                                          .                                                                                             .                                                                                                 .                                                                                             .                                                                                             .                                               ",
"                                          .                                                                                             .                                                                                                 .                                                                                             .                                                                                             .                                               ",
"+ + + + + + + @ # $ % & * = - ; > , ' ) ! . ~ { ] ^ / ( _ : < [ } | 1 2 3 4 5 6 7 8 9 0 a b c d e f f f f f f f f f f f f f f f f f f f . f f f f f f f f f f f f f f f f f f f f f f f f f f f f f f f f f f f f f f f f f f f f f f f f . f f f f f f f f f f f f f f f f f f f f f f f f f f f f f f f f f f f f f f f f f f f f f f . f f f f f f f f f f f f f f f f f f f e d c b a 0 9 8 7 6 5 g h i j k l m n o p q r s t u v . w x y z A B C D E F G H I J + + + + + + + + + ",
"+ + + + + + + @ # $ % & * = - ; > , K L M . N O t s r q p o n m l k j i h g P Q R S T U V W X Y Z f f f f f f f f f f f f f f f f f f f . f f f f f f f f f f f f f f f f f f f f f f f f f f f f f f f f f f f f f f f f f f f f f f f f . f f f f f f f f f f f f f f f f f f f f f f f f f f f f f f f f f f f f f f f f f f f f f f . f f f f f f f f f f f f f f f f f f f e d c b a 0 9 8 7 Q P g h i j k l m n o p q r `  .u v . w x y z A B C D ..+.G H I J + + + + + + + + + ",
"+ + + + + + + @.#.$.%.F E D C B A z y x w . v u  .` &.*.=.-.;.>.,.'.).!.~.{.].^./.(._.:.<.[.}.|.1.f f f f f f f f f f f f f f f f f f f . f f f f f f f f f f f f f f f f f f f f f f f f f f f f f f f f f f f f f f f f f f f f f f f f . f f f f f f f f f f f f f f f f f f f f f f f f f f f f f f f f f f f f f f f f f f f f f f . f f f f f f f f f f f f f f f f f f f e d c b a 0 9 S R Q P g h i j k l m n o p *.&.`  .u v . w x y z A B 2.3...+.G H I J + + + + + + + + + ",
"+ + + + + + + J I H G +...3.2.4.5.6.7.8.9.. 0.a.b.c.d.e.=.-.;.>.,.'.).!.~.{.].^./.(._.:.<.[.}.|.1.f f f f f f f f f f f f f f f f f f f . f f f f f f f f f f f f f f f f f f f f f f f f f f f f f f f f f f f f f f f f f f f f f f f f . f f f f f f f f f f f f f f f f f f f f f f f f f f f f f f f f f f f f f f f f f f f f f f . f f f f f f f f f f f f f f f f f f f e d c b a U T S R Q P g h i j k l m n -.=.*.&.`  .u v . w x y z A 4.2.3...+.G H I J + + + + + + + + + ",
"+ + + + + + + J I H G +...3.2.4.5.6.7.8.9.f.0.a.b.c.d.e.g.h.i.j.k.l.m.n.o.p.q.r.s.t.u.v.w.x.y.z.A.f f f f f f f f f f f f f f f f f f f f f f f f f f f f f f f f f f f f f f f f f f f f f f f f f f f f f f f f f f f f f f f f f f f f f f f f f f f f f f f f f f f f f f f f f f f f f f f f f f f f f f f f f f f f f f f f f f f f f f f f f f f f f f f f f f f f f f f e d c W V U T S R Q P g h i j k l >.;.-.=.*.&.`  .u v B.w x y 6.5.4.2.3...+.G H I J + + + + + + + + + ",
"+ + + + + + C.D.E.F.G.H.I.J.K.L.M.N.O.P.Q.R.S.T.U.V.W.X.Y.Z.`. +.+++@+#+$+%+&+*+=+-+;+>+,+'+)+!+~+f f f f f f f f f f f f f f f f f f f f f f f f f f f f f f f f f f f f f f f f f f f f f f f f f f f f f f f f f f f f f f f f f f f f f f f f f f f f f f f f f f f f f f f f f f f f f f f f f f f f f f f f f f f f f f f f f f f f f f f f f f f f f f f f f f f f f f f e Y X W V U T S R Q P g h i j '.,.>.;.-.=.*.&.`  .u v B.w 8.7.6.5.4.2.3...+.G H I J + + + + + + + + + ",
"+ + + + + + {+]+^+/+(+_+:+<+[+}+|+1+2+3+4+5+6+7+8+9+0+a+b+c+d+e+f+g+h+i+j+k+&+*+=+-+;+>+,+'+)+!+~+f f f f f f f f f f f f f f f f f f f f f f f f f f f f f f f f f f f f f f f f f f f f f f f f f f f f f f f f f f f f f f f f f f f f f f f f f f f f f f f f f f f f f f f f f f f f f f f f f f f f f f f f f f f f f f f f f f f f f f f f f f f f f f f f f f f f f f f Z Y X W V U T S R Q P g h !.).'.,.>.;.-.=.*.&.`  .u v f.9.8.7.6.5.4.2.3...+.G H I D.C.+ + + + + + + + ",
"+ + + + + + l+m+n+o+p+q+r+s+t+u+v+1+2+3+4+5+6+7+8+9+0+a+b+c+d+e+f+g+h+i+j+k+w+x+y+z+A+B+C+D+E+F+G+f f f f f f f f f f f f f f f f f f f f f f f f f f f f f f f f f f f f f f f f f f f f f f f f f f f f f f f f f f f f f f f f f f f f f f f f f f f f f f f f f f f f f f f f f f f f f f f f f f f f f f f f f f f f f f f f f f f f f f f f f f f f f f f f f f f f f f f Z Y X W V U T S R Q P {.~.!.).'.,.>.;.-.=.*.&.`  .a.0.f.9.8.7.6.5.4.2.3...+.G F.E.D.C.+ + + + + + + + ",
"+ + + + + + l+m+n+o+p+q+r+s+t+u+v+' ) ! H+~ { ] ^ / ( _ : < [ } | 1 2 3 4 5 6 7 8 9 0 a b c d e f f f f f f f f f f f f f f f f f f f f f f f f f f f f f f f f f f f f f f f f f f f f f f f f f f f f f f f f f f f f f f f f f f f f f f f f f f f f f f f f f f f f f f f f f f f f f f f f f f f f f f f f f f f f f f f f f f f f f f f f f f f f f f f f f f f f f f f f Z Y X W V U T S R ^.].{.~.!.).'.,.>.;.-.=.*.&.c.b.a.0.f.9.8.7.6.5.4.2.3...H.G.F.E.D.C.+ + + + + + + + ",
"+ + + + + + @ # $ % & * = - ; > , K L M I+N O t s r q p o n m l k j i h g P Q R S T U V W X Y Z f f f f f f f f f f f f f f f f f f f f f f f f f f f f f f f f f f f f f f f f f f f f f f f f f f f f f f f f f f f f f f f f f f f f f f f f f f f f f f f f f f f f f f f f f f f f f f f f f f f f f f f f f f f f f f f f f f f f f f f f f f f f f f f f f f f f f f f f Z Y X W V U T S /.^.].{.~.!.).'.,.>.;.-.=.e.d.c.b.a.0.f.9.8.7.6.5.4.2.J.I.H.G.F.E.D.C.+ + + + + + + + ",
"+ + + + + + @.#.$.%.F E D C B A z y x w B.v u  .` &.*.p o n m l k j i h g P Q R S T U V W X Y Z f f f f f f f f f f f f f f f f f f f f f f f f f f f f f f f f f f f f f f f f f f f f f f f f f f f f f f f f f f f f f f f f f f f f f f f f f f f f f f f f f f f f f f f f f f f f f f f f f f f f f f f f f f f f f f f f f f f f f f f f f f f f f f f f f f f f f f f f Z Y X W V U _.(./.^.].{.~.!.).'.,.>.;.h.g.e.d.c.b.a.0.f.9.8.7.6.5.L.K.J.I.H.G.F.E.D.C.+ + + + + + + + ",
"+ + + + + + @.#.$.%.F E D C B A z y x w B.v u  .` &.*.=.-.;.>.,.'.).!.~.{.].^./.(._.:.<.[.}.|.1.f f f f f f f f f f f f f f f f f f f f f f f f f f f f f f f f f f f f f f f f f f f f f f f f f f f f f f f f f f f f f f f f f f f f f f f f f f f f f f f f f f f f f f f f f f f f f f f f f f f f f f f f f f f f f f f f f f f f f f f f f f f f f f f f f f f f f f f f Z Y X W <.:._.(./.^.].{.~.!.).'.,.j.i.h.g.e.d.c.b.a.0.f.9.8.7.N.M.L.K.J.I.H.G.F.E.D.C.+ + + + + + + + ",
"+ + + + + + J I H G +...3.2.4.5.6.7.8.9.f.0.a.b.c.d.e.g.h.i.j.k.l.m.n.o.p.q.r.s.t.u.v.w.x.y.z.A.f f f f f f f f f f f f f f f f f f f f f f f f f f f f f f f f f f f f f f f f f f f f f f f f f f f f f f f f f f f f f f f f f f f f f f f f f f f f f f f f f f f f f f f f f f f f f f f f f f f f f f f f f f f f f f f f f f f f f f f f f f f f f f f f f f f f f f f f Z Y }.[.<.:._.(./.^.].{.~.!.).'.k.j.i.h.g.e.d.c.b.a.0.f.9.P.O.N.M.L.K.J.I.H.G.F.E.D.C.+ + + + + + + + "};
