/* XPM */
static char * selall_xpm[] = {
"12 13 4 1",
" 	c None",
".	c #0C1A99",
"+	c #5775E0",
"@	c #FFFFFF",
"........    ",
".++++++..   ",
".+@@@@+.@.  ",
".++++++.@@. ",
".+@@@@+.....",
".+++++++++@.",
".+@@@@@@@+@.",
".+++++++++@.",
".+@@@@@@@+@.",
".+++++++++@.",
".+++++++++@.",
".@@@@@@@@@@.",
"............"};
