/* XPM */
static char * showall_xpm[] = {
"18 18 6 1",
" 	c None",
".	c #001689",
"+	c #565656",
"@	c #0000FF",
"#	c #08FF00",
"$	c #000000",
"                  ",
"                  ",
"  .............   ",
"  +++++++++++++   ",
"  @@@@@@#@@@@@@   ",
"  #@@#####@#@@@   ",
"  #############   ",
"  #############   ",
"  @@@##@####@@@   ",
"  @@@@@@@@@@@@@   ",
"  +++++++++++++   ",
"    $       $     ",
"   $$       $$    ",
"  $$$$$$$$$$$$$   ",
"   $$       $$    ",
"    $       $     ",
"                  ",
"                  "};
